<?xml version="1.0" encoding="UTF-8" standalone="no"?>
<!-- Created with Inkscape (http://www.inkscape.org/) -->

<svg
   xmlns:dc="http://purl.org/dc/elements/1.1/"
   xmlns:cc="http://creativecommons.org/ns#"
   xmlns:rdf="http://www.w3.org/1999/02/22-rdf-syntax-ns#"
   xmlns:svg="http://www.w3.org/2000/svg"
   xmlns="http://www.w3.org/2000/svg"
   xmlns:sodipodi="http://sodipodi.sourceforge.net/DTD/sodipodi-0.dtd"
   xmlns:inkscape="http://www.inkscape.org/namespaces/inkscape"
   width="1781.9995"
   height="891.58636"
   id="svg4821"
   version="1.1"
   inkscape:version="0.48.2 r9819"
   sodipodi:docname="simple_ball_parachute.svg">
  <defs
     id="defs3" />
  <sodipodi:namedview
     inkscape:document-units="mm"
     id="base"
     pagecolor="#ffffff"
     bordercolor="#666666"
     borderopacity="1.0"
     inkscape:pageopacity="0.0"
     inkscape:pageshadow="2"
     inkscape:zoom="0.40623057"
     inkscape:cx="414.96365"
     inkscape:cy="350.50787"
     inkscape:current-layer="layer1"
     showgrid="false"
     units="mm"
     inkscape:window-width="1920"
     inkscape:window-height="1138"
     inkscape:window-x="-8"
     inkscape:window-y="-8"
     inkscape:window-maximized="1"
     fit-margin-top="5"
     fit-margin-left="5"
     fit-margin-right="5"
     fit-margin-bottom="5" />
  <metadata
     id="metadata4">
    <rdf:RDF>
      <cc:Work
         rdf:about="">
        <dc:format>image/svg+xml</dc:format>
        <dc:type
           rdf:resource="http://purl.org/dc/dcmitype/StillImage" />
        <dc:title></dc:title>
      </cc:Work>
    </rdf:RDF>
  </metadata>
  <g
     inkscape:label="Layer 1"
     inkscape:groupmode="layer"
     id="layer1"
     transform="translate(-32.283465,36.869821)">
    <path
       style="fill:none;stroke:#0c417a;stroke-width:3.54330707;stroke-linecap:butt;stroke-linejoin:miter;stroke-miterlimit:4;stroke-opacity:1;stroke-dasharray:10.62992126, 10.62992126;stroke-dashoffset:0"
       d="m 175.79777,227.83908 c 0,0 695.1451,-392.6958 955.57303,-472.69553 191.5681,-58.84698 452.2605,-14.35736 620.2337,159.604107"
       id="path3885"
       inkscape:connector-curvature="0"
       transform="translate(31.783465,374.78851)"
       sodipodi:nodetypes="csc" />
    <path
       style="fill:none;stroke:#0c417a;stroke-width:2.48031497;stroke-linecap:round;stroke-linejoin:miter;stroke-miterlimit:4;stroke-opacity:1;stroke-dasharray:none"
       d="M 491.28571,442.93361 202.14285,606.50503"
       id="path3033"
       inkscape:connector-curvature="0"
       sodipodi:nodetypes="cc" />
    <path
       sodipodi:type="arc"
       style="fill:#db2424;fill-opacity:1;stroke:#000000;stroke-width:4;stroke-linecap:round;stroke-linejoin:round;stroke-miterlimit:4;stroke-opacity:1;stroke-dasharray:none;stroke-dashoffset:0"
       id="path4827"
       sodipodi:cx="210.61681"
       sodipodi:cy="310.23398"
       sodipodi:rx="25"
       sodipodi:ry="25"
       d="m 235.61679,310.26255 c -0.0158,13.80711 -11.22145,24.98719 -25.02856,24.97141 -13.80711,-0.0158 -24.98719,-11.22144 -24.97141,-25.02855 0.0158,-13.80711 11.22145,-24.9872 25.02856,-24.97142 13.77881,0.0157 24.94719,11.17728 24.97139,24.95608"
       transform="matrix(0.60317449,0,0,0.60317449,72.863833,420.66217)"
       sodipodi:start="0.0011429136"
       sodipodi:end="6.2814289"
       sodipodi:open="true" />
    <g
       style="display:inline"
       transform="matrix(0.58177335,0,0,0.58177335,-170.1727,435.87461)"
       id="g5568">
      <g
         transform="matrix(-1,0,0,-1,1132.7285,1279.0817)"
         id="g7925">
        <path
           id="path7927"
           style="fill:#000000;fill-opacity:1;stroke:#000000;stroke-width:9;stroke-linecap:round;stroke-linejoin:round;stroke-miterlimit:4;stroke-opacity:1;stroke-dasharray:none"
           d="m 522.08018,638.61484 c -8.73159,5.81033 -20.12562,9.67064 -34.08018,11.56592 13.95456,1.89529 25.34859,5.75559 34.08018,11.56592 z"
           inkscape:connector-curvature="0"
           sodipodi:nodetypes="cccc" />
        <path
           style="fill:none;stroke:#000000;stroke-width:8;stroke-linecap:round;stroke-linejoin:round;stroke-miterlimit:4;stroke-opacity:1;stroke-dasharray:none"
           d="m 508.40978,650.18076 189.50462,0"
           id="path7929"
           inkscape:connector-curvature="0"
           sodipodi:nodetypes="cc" />
      </g>
      <g
         id="g7931"
         transform="matrix(0,1,-1,0,1084.4704,-70.806373)">
        <path
           sodipodi:nodetypes="cccc"
           inkscape:connector-curvature="0"
           d="m 522.08018,638.61484 c -8.73159,5.81033 -20.12562,9.67064 -34.08018,11.56592 13.95456,1.89529 25.34859,5.75559 34.08018,11.56592 z"
           style="fill:#000000;fill-opacity:1;stroke:#000000;stroke-width:9;stroke-linecap:round;stroke-linejoin:round;stroke-miterlimit:4;stroke-opacity:1;stroke-dasharray:none"
           id="path7933" />
        <path
           sodipodi:nodetypes="cc"
           inkscape:connector-curvature="0"
           id="path7935"
           d="m 508.40978,650.18076 189.50462,0"
           style="fill:none;stroke:#000000;stroke-width:8;stroke-linecap:round;stroke-linejoin:round;stroke-miterlimit:4;stroke-opacity:1;stroke-dasharray:none" />
      </g>
    </g>
    <path
       style="fill:none;stroke:#000000;stroke-width:1px;stroke-linecap:butt;stroke-linejoin:miter;stroke-opacity:1"
       d="m 50,493.02306 593.14285,0"
       id="path5633"
       inkscape:connector-curvature="0"
       transform="translate(0,308.2677)"
       sodipodi:nodetypes="cc" />
    <path
       sodipodi:nodetypes="cc"
       inkscape:connector-curvature="0"
       id="path5635"
       d="m 82.142855,837.00505 0,-444"
       style="fill:none;stroke:#000000;stroke-width:1px;stroke-linecap:butt;stroke-linejoin:miter;stroke-opacity:1" />
    <g
       id="g5637"
       transform="matrix(0.45369216,0.80765564,-0.80765564,0.45369216,527.45368,-37.736116)"
       style="display:inline">
      <g
         id="g5639"
         transform="matrix(-1,0,0,-1,1132.7285,1279.0817)" />
      <g
         transform="matrix(0,1,-1,0,1084.4704,-70.806373)"
         id="g5645">
        <path
           id="path5647"
           style="fill:#000000;fill-opacity:1;stroke:#000000;stroke-width:9;stroke-linecap:round;stroke-linejoin:round;stroke-miterlimit:4;stroke-opacity:1;stroke-dasharray:none"
           d="m 522.08018,638.61484 c -8.73159,5.81033 -20.12562,9.67064 -34.08018,11.56592 13.95456,1.89529 25.34859,5.75559 34.08018,11.56592 z"
           inkscape:connector-curvature="0"
           sodipodi:nodetypes="cccc" />
        <path
           style="fill:none;stroke:#000000;stroke-width:8;stroke-linecap:round;stroke-linejoin:round;stroke-miterlimit:4;stroke-opacity:1;stroke-dasharray:none"
           d="m 508.40978,650.18076 189.50462,0"
           id="path5649"
           inkscape:connector-curvature="0"
           sodipodi:nodetypes="cc" />
      </g>
    </g>
    <text
       xml:space="preserve"
       style="font-size:48px;font-style:normal;font-variant:normal;font-weight:normal;font-stretch:normal;text-align:start;line-height:125%;letter-spacing:0px;word-spacing:0px;writing-mode:lr-tb;text-anchor:start;fill:#000000;fill-opacity:1;stroke:none;font-family:Times New Roman;-inkscape-font-specification:'Times New Roman,'"
       x="1117.6855"
       y="329.93607"
       id="text5651"
       sodipodi:linespacing="125%"><tspan
         sodipodi:role="line"
         id="tspan5653"
         x="1117.6855"
         y="329.93607"
         style="font-size:48px;font-style:normal;font-variant:normal;font-weight:normal;font-stretch:normal;text-align:start;line-height:125%;writing-mode:lr-tb;text-anchor:start;font-family:Times New Roman;-inkscape-font-specification:'Times New Roman,'">ball</tspan></text>
    <path
       style="fill:none;stroke:#0c417a;stroke-width:1.41732287;stroke-linecap:round;stroke-linejoin:round;stroke-miterlimit:4;stroke-opacity:1;stroke-dasharray:none;display:inline"
       d="m 1110.837,316.94391 -26.9316,0 c -34.454,0 5.5433,-11.06891 -3.5228,-26.18111 l -53.629,-89.39417"
       id="path4412"
       inkscape:connector-curvature="0"
       sodipodi:nodetypes="cssc" />
    <g
       id="g5729">
      <g
         id="g8428"
         transform="matrix(-1.25,0,0,-1.25,-327.07671,-388.39694)">
        <path
           d="m -487.62258,-927.355 c -2.172,-7.11 -3.618,-12.11 -4.325,-23.473 -0.711,11.363 -2.152,16.363 -4.324,23.473 l 8.649,0 z"
           style="fill:#0c417a;fill-opacity:1;fill-rule:nonzero;stroke:#0c417a;stroke-width:2.79999995;stroke-linecap:round;stroke-linejoin:round;stroke-miterlimit:4;stroke-opacity:1;stroke-dasharray:none"
           id="path8430"
           inkscape:connector-curvature="0" />
      </g>
      <g
         id="g8436"
         transform="matrix(-1.25,0,0,-1.25,-328.30973,415.62273)">
        <path
           d="m -488.609,-178.301 c -2.172,7.11 -3.618,12.11 -4.325,23.473 -0.711,-11.363 -2.152,-16.363 -4.324,-23.473 l 8.649,0 z"
           style="fill:#0c417a;fill-opacity:1;fill-rule:nonzero;stroke:#0c417a;stroke-width:2.79999995;stroke-linecap:round;stroke-linejoin:round;stroke-miterlimit:4;stroke-opacity:1;stroke-dasharray:none"
           id="path8438"
           inkscape:connector-curvature="0" />
      </g>
      <path
         sodipodi:nodetypes="cc"
         transform="translate(0,308.2677)"
         inkscape:connector-curvature="0"
         id="path5725"
         d="m 287.85714,307.95162 0,178.42858"
         style="fill:none;stroke:#0c417a;stroke-width:2.48031497;stroke-linecap:round;stroke-linejoin:miter;stroke-miterlimit:4;stroke-opacity:1;stroke-dasharray:none" />
    </g>
    <path
       sodipodi:nodetypes="cc"
       inkscape:connector-curvature="0"
       id="path5727"
       d="m 532.85714,608.64789 -312.14286,0"
       style="fill:none;stroke:#0c417a;stroke-width:2.48031497;stroke-linecap:round;stroke-linejoin:miter;stroke-miterlimit:4;stroke-opacity:1;stroke-dasharray:none" />
    <text
       sodipodi:linespacing="125%"
       id="text5736"
       y="509.11545"
       x="260.6665"
       style="font-size:28px;font-style:normal;font-variant:normal;font-weight:normal;font-stretch:normal;text-align:start;line-height:125%;letter-spacing:0px;word-spacing:0px;writing-mode:lr-tb;text-anchor:start;fill:#000000;fill-opacity:1;stroke:none;font-family:Bitstream Vera Sans Mono;-inkscape-font-specification:Bitstream Vera Sans Mono"
       xml:space="preserve"><tspan
         style="font-size:28px;font-style:normal;font-variant:normal;font-weight:normal;font-stretch:normal;text-align:start;line-height:125%;writing-mode:lr-tb;text-anchor:start;font-family:Bitstream Vera Sans Mono;-inkscape-font-specification:Bitstream Vera Sans Mono"
         y="509.11545"
         x="260.6665"
         id="tspan5738"
         sodipodi:role="line">ubody</tspan></text>
    <text
       xml:space="preserve"
       style="font-size:28px;font-style:normal;font-variant:normal;font-weight:normal;font-stretch:normal;text-align:start;line-height:125%;letter-spacing:0px;word-spacing:0px;writing-mode:lr-tb;text-anchor:start;fill:#000000;fill-opacity:1;stroke:none;font-family:Bitstream Vera Sans Mono;-inkscape-font-specification:Bitstream Vera Sans Mono"
       x="296.3808"
       y="708.40118"
       id="text3011"
       sodipodi:linespacing="125%"><tspan
         sodipodi:role="line"
         id="tspan3013"
         x="296.3808"
         y="708.40118"
         style="font-size:28px;font-style:normal;font-variant:normal;font-weight:normal;font-stretch:normal;text-align:start;line-height:125%;writing-mode:lr-tb;text-anchor:start;font-family:Bitstream Vera Sans Mono;-inkscape-font-specification:Bitstream Vera Sans Mono">altitude</tspan></text>
    <g
       id="g3806">
      <path
         sodipodi:nodetypes="cc"
         inkscape:connector-curvature="0"
         id="path5290"
         d="M 494.02885,596.543 C 494.07425,551.57272 477.3003,504.89492 458.6855,481.45778"
         style="fill:none;stroke:#0c417a;stroke-width:2.48031497;stroke-linecap:round;stroke-linejoin:round;stroke-miterlimit:4;stroke-opacity:1;stroke-dasharray:none;display:inline" />
      <path
         inkscape:transform-center-x="11.6673"
         inkscape:transform-center-y="-10.908215"
         sodipodi:nodetypes="cccc"
         inkscape:connector-curvature="0"
         d="m 488.99854,581.10861 c 2.4621,7.94698 4.09906,13.53166 4.94233,26.24451 0.7424,-12.71923 2.33505,-18.31661 4.73405,-26.28288 z"
         style="fill:#0c417a;fill-opacity:1;stroke:#0c417a;stroke-width:3.13279319;stroke-linecap:round;stroke-linejoin:round;stroke-miterlimit:4;stroke-opacity:1;stroke-dasharray:none;display:inline"
         id="path5292" />
      <path
         inkscape:transform-center-x="-10.260617"
         inkscape:transform-center-y="14.133877"
         id="path5294"
         style="fill:#0c417a;fill-opacity:1;stroke:#0c417a;stroke-width:3.13279319;stroke-linecap:round;stroke-linejoin:round;stroke-miterlimit:4;stroke-opacity:1;stroke-dasharray:none;display:inline"
         d="m 460.09201,491.54504 c -1.89987,-8.09984 -3.31555,-13.74467 -9.02431,-25.13496 7.07946,10.59301 11.28673,14.6138 17.38844,20.26922 z"
         inkscape:connector-curvature="0"
         sodipodi:nodetypes="cccc" />
    </g>
    <text
       xml:space="preserve"
       style="font-size:28px;font-style:normal;font-variant:normal;font-weight:normal;font-stretch:normal;text-align:start;line-height:125%;letter-spacing:0px;word-spacing:0px;writing-mode:lr-tb;text-anchor:start;fill:#000000;fill-opacity:1;stroke:none;font-family:Bitstream Vera Sans Mono;-inkscape-font-specification:Bitstream Vera Sans Mono"
       x="498.52365"
       y="538.04407"
       id="text3811"
       sodipodi:linespacing="125%"><tspan
         sodipodi:role="line"
         id="tspan3813"
         x="498.52365"
         y="538.04407"
         style="font-size:28px;font-style:normal;font-variant:normal;font-weight:normal;font-stretch:normal;text-align:start;line-height:125%;writing-mode:lr-tb;text-anchor:start;font-family:Bitstream Vera Sans Mono;-inkscape-font-specification:Bitstream Vera Sans Mono">theta</tspan></text>
    <g
       id="g3876"
       transform="matrix(0.66171504,-0.74975543,0.74975543,0.66171504,1171.5302,229.72713)">
      <g
         id="g3856">
	<g
   id="g3858">
		<path
   id="path3860"
   d="m 289.543,272.957 c 12.968,0 23.486,10.541 23.486,23.508 0,-12.967 10.507,-23.508 23.485,-23.508 12.978,0 23.486,10.541 23.486,23.508 0,-12.967 10.508,-23.508 23.508,-23.508 12.979,0 23.485,10.541 23.485,23.508 0,-12.967 10.508,-23.508 23.509,-23.508 12.957,0 23.463,10.541 23.463,23.508 0,-51.893 -42.072,-93.965 -93.965,-93.965 -51.892,0 -93.965,42.072 -93.965,93.965 0,-12.967 10.518,-23.508 23.508,-23.508 z"
   inkscape:connector-curvature="0"
   style="fill:#0c417a;fill-opacity:1;stroke:#0c417a;stroke-width:1.17200005;stroke-linecap:round;stroke-linejoin:round;stroke-opacity:1" />

	</g>

	<polyline
   id="polyline3862"
   points="   453.965,296.465 360,489.5 406.993,296.465  "
   style="fill:none;stroke:#0c417a;stroke-width:1.17200005;stroke-linecap:round;stroke-linejoin:round;stroke-opacity:1" />

	<polyline
   id="polyline3864"
   points="   266.035,296.465 360,489.5 313.029,296.465  "
   style="fill:none;stroke:#0c417a;stroke-width:1.17200005;stroke-linecap:round;stroke-linejoin:round;stroke-opacity:1" />

	
		<line
   id="line3866"
   y2="489.5"
   x2="360"
   y1="296.465"
   x1="360"
   style="fill:none;stroke:#0c417a;stroke-width:1.17200005;stroke-linecap:round;stroke-linejoin:round;stroke-opacity:1" />

</g>
    </g>
    <g
       transform="translate(-928.63361,-143.54843)"
       id="g3887">
      <g
         id="g3889">
	<g
   id="g3891">
		<path
   style="stroke:#000000;stroke-width:1.17200005;stroke-linecap:round;stroke-linejoin:round"
   inkscape:connector-curvature="0"
   d="m 289.543,272.957 c 12.968,0 23.486,10.541 23.486,23.508 0,-12.967 10.507,-23.508 23.485,-23.508 12.978,0 23.486,10.541 23.486,23.508 0,-12.967 10.508,-23.508 23.508,-23.508 12.979,0 23.485,10.541 23.485,23.508 0,-12.967 10.508,-23.508 23.509,-23.508 12.957,0 23.463,10.541 23.463,23.508 0,-51.893 -42.072,-93.965 -93.965,-93.965 -51.892,0 -93.965,42.072 -93.965,93.965 0,-12.967 10.518,-23.508 23.508,-23.508 z"
   id="path3893" />

	</g>

	<polyline
   style="fill:none;stroke:#000000;stroke-width:1.17200005;stroke-linecap:round;stroke-linejoin:round"
   points="   453.965,296.465 360,489.5 406.993,296.465  "
   id="polyline3895" />

	<polyline
   style="fill:none;stroke:#000000;stroke-width:1.17200005;stroke-linecap:round;stroke-linejoin:round"
   points="   266.035,296.465 360,489.5 313.029,296.465  "
   id="polyline3897" />

	
		<line
   style="fill:none;stroke:#000000;stroke-width:1.17200005;stroke-linecap:round;stroke-linejoin:round"
   x1="360"
   y1="296.465"
   x2="360"
   y2="489.5"
   id="line3899" />

</g>
    </g>
    <path
       sodipodi:open="true"
       sodipodi:end="6.2814289"
       sodipodi:start="0.0011429136"
       transform="matrix(0.60317449,0,0,0.60317449,1653.2365,96.243981)"
       d="m 235.61679,310.26255 c -0.0158,13.80711 -11.22145,24.98719 -25.02856,24.97141 -13.80711,-0.0158 -24.98719,-11.22144 -24.97141,-25.02855 0.0158,-13.80711 11.22145,-24.9872 25.02856,-24.97142 13.77881,0.0157 24.94719,11.17728 24.97139,24.95608"
       sodipodi:ry="25"
       sodipodi:rx="25"
       sodipodi:cy="310.23398"
       sodipodi:cx="210.61681"
       id="path3912"
       style="fill:#db2424;fill-opacity:1;stroke:#000000;stroke-width:4;stroke-linecap:round;stroke-linejoin:round;stroke-miterlimit:4;stroke-opacity:1;stroke-dasharray:none;stroke-dashoffset:0"
       sodipodi:type="arc" />
    <g
       style="display:inline"
       transform="matrix(1.0582822,-1.1701495,1.1701495,1.0582822,567.00482,112.09974)"
       id="g3914"
       inkscape:transform-center-x="129.64324"
       inkscape:transform-center-y="-117.65498">
      <g
         transform="matrix(-1,0,0,-1,1132.7285,1279.0817)"
         id="g3916" />
      <g
         id="g3918"
         transform="matrix(0,1,-1,0,1084.4704,-70.806373)">
        <path
           sodipodi:nodetypes="cccc"
           inkscape:connector-curvature="0"
           d="m 522.08018,638.61484 c -8.73159,5.81033 -20.12562,9.67064 -34.08018,11.56592 13.95456,1.89529 25.34859,5.75559 34.08018,11.56592 z"
           style="fill:#000000;fill-opacity:1;stroke:#000000;stroke-width:9;stroke-linecap:round;stroke-linejoin:round;stroke-miterlimit:4;stroke-opacity:1;stroke-dasharray:none"
           id="path3920" />
        <path
           sodipodi:nodetypes="cc"
           inkscape:connector-curvature="0"
           id="path3922"
           d="m 508.40978,650.18076 189.50462,0"
           style="fill:none;stroke:#000000;stroke-width:8;stroke-linecap:round;stroke-linejoin:round;stroke-miterlimit:4;stroke-opacity:1;stroke-dasharray:none" />
      </g>
    </g>
    <path
       sodipodi:type="arc"
       style="fill:#db2424;fill-opacity:1;stroke:#000000;stroke-width:4;stroke-linecap:round;stroke-linejoin:round;stroke-miterlimit:4;stroke-opacity:1;stroke-dasharray:none;stroke-dashoffset:0"
       id="path3924"
       sodipodi:cx="210.61681"
       sodipodi:cy="310.23398"
       sodipodi:rx="25"
       sodipodi:ry="25"
       d="m 235.61679,310.26255 c -0.0158,13.80711 -11.22145,24.98719 -25.02856,24.97141 -13.80711,-0.0158 -24.98719,-11.22144 -24.97141,-25.02855 0.0158,-13.80711 11.22145,-24.9872 25.02856,-24.97142 13.77881,0.0157 24.94719,11.17728 24.97139,24.95608"
       transform="matrix(0.60317449,0,0,0.60317449,886.4785,-0.3623049)"
       sodipodi:start="0.0011429136"
       sodipodi:end="6.2814289"
       sodipodi:open="true" />
    <g
       inkscape:transform-center-y="35.742776"
       inkscape:transform-center-x="80.00824"
       id="g3926"
       transform="matrix(-0.32248085,-0.72103748,0.72103748,-0.32248085,685.65492,710.54491)"
       style="display:inline">
      <g
         id="g3928"
         transform="matrix(-1,0,0,-1,1132.7285,1279.0817)" />
      <g
         transform="matrix(0,1,-1,0,1084.4704,-70.806373)"
         id="g3930">
        <path
           id="path3932"
           style="fill:#000000;fill-opacity:1;stroke:#000000;stroke-width:9;stroke-linecap:round;stroke-linejoin:round;stroke-miterlimit:4;stroke-opacity:1;stroke-dasharray:none"
           d="m 522.08018,638.61484 c -8.73159,5.81033 -20.12562,9.67064 -34.08018,11.56592 13.95456,1.89529 25.34859,5.75559 34.08018,11.56592 z"
           inkscape:connector-curvature="0"
           sodipodi:nodetypes="cccc" />
        <path
           style="fill:none;stroke:#000000;stroke-width:8;stroke-linecap:round;stroke-linejoin:round;stroke-miterlimit:4;stroke-opacity:1;stroke-dasharray:none"
           d="m 508.40978,650.18076 189.50462,0"
           id="path3934"
           inkscape:connector-curvature="0"
           sodipodi:nodetypes="cc" />
      </g>
    </g>
    <text
       sodipodi:linespacing="125%"
       id="text3936"
       y="191.72153"
       x="854.53015"
       style="font-size:48px;font-style:normal;font-variant:normal;font-weight:normal;font-stretch:normal;text-align:start;line-height:125%;letter-spacing:0px;word-spacing:0px;writing-mode:lr-tb;text-anchor:start;fill:#000000;fill-opacity:1;stroke:none;font-family:Times New Roman;-inkscape-font-specification:'Times New Roman,'"
       xml:space="preserve"><tspan
         sodipodi:role="line"
         id="tspan3940"
         style="font-size:48px;font-style:normal;font-variant:normal;font-weight:normal;font-stretch:normal;text-align:start;line-height:125%;writing-mode:lr-tb;text-anchor:start;font-family:Times New Roman;-inkscape-font-specification:'Times New Roman,'"
         x="854.53015"
         y="191.72153">drag</tspan></text>
    <text
       xml:space="preserve"
       style="font-size:48px;font-style:normal;font-variant:normal;font-weight:normal;font-stretch:normal;text-align:start;line-height:125%;letter-spacing:0px;word-spacing:0px;writing-mode:lr-tb;text-anchor:start;fill:#000000;fill-opacity:1;stroke:none;font-family:Times New Roman;-inkscape-font-specification:'Times New Roman,'"
       x="1247.918"
       y="14.174839"
       id="text3942"
       sodipodi:linespacing="125%"><tspan
         y="14.174839"
         x="1247.918"
         style="font-size:48px;font-style:normal;font-variant:normal;font-weight:normal;font-stretch:normal;text-align:start;line-height:125%;writing-mode:lr-tb;text-anchor:start;font-family:Times New Roman;-inkscape-font-specification:'Times New Roman,'"
         id="tspan3944"
         sodipodi:role="line">parachute drag</tspan></text>
    <text
       sodipodi:linespacing="125%"
       id="text3946"
       y="307.78116"
       x="300.41565"
       style="font-size:48px;font-style:normal;font-variant:normal;font-weight:normal;font-stretch:normal;text-align:center;line-height:125%;letter-spacing:0px;word-spacing:0px;writing-mode:lr-tb;text-anchor:middle;fill:#000000;fill-opacity:1;stroke:none;font-family:Times New Roman;-inkscape-font-specification:'Times New Roman,'"
       xml:space="preserve"><tspan
         style="font-size:48px;font-style:normal;font-variant:normal;font-weight:normal;font-stretch:normal;text-align:center;line-height:125%;writing-mode:lr-tb;text-anchor:middle;font-family:Times New Roman;-inkscape-font-specification:'Times New Roman,'"
         y="307.78116"
         x="300.41565"
         id="tspan3948"
         sodipodi:role="line">initial</tspan><tspan
         style="font-size:48px;font-style:normal;font-variant:normal;font-weight:normal;font-stretch:normal;text-align:center;line-height:125%;writing-mode:lr-tb;text-anchor:middle;font-family:Times New Roman;-inkscape-font-specification:'Times New Roman,'"
         y="367.78116"
         x="300.41565"
         sodipodi:role="line"
         id="tspan3952">conditions</tspan></text>
    <rect
       style="fill:none;stroke:#0c417a;stroke-width:3.54330707;stroke-linecap:round;stroke-linejoin:round;stroke-miterlimit:4;stroke-opacity:1;stroke-dasharray:10.62992126, 10.62992126;stroke-dashoffset:0"
       id="rect3950"
       width="646.18451"
       height="512.02435"
       x="113.51811"
       y="322.99881" />
  </g>
</svg>
