<?xml version="1.0" encoding="UTF-8" standalone="no"?>
<!-- Generator: Adobe Illustrator 15.0.0, SVG Export Plug-In . SVG Version: 6.00 Build 0)  -->

<svg
   xmlns:dc="http://purl.org/dc/elements/1.1/"
   xmlns:cc="http://creativecommons.org/ns#"
   xmlns:rdf="http://www.w3.org/1999/02/22-rdf-syntax-ns#"
   xmlns:svg="http://www.w3.org/2000/svg"
   xmlns="http://www.w3.org/2000/svg"
   xmlns:xlink="http://www.w3.org/1999/xlink"
   xmlns:sodipodi="http://sodipodi.sourceforge.net/DTD/sodipodi-0.dtd"
   xmlns:inkscape="http://www.inkscape.org/namespaces/inkscape"
   version="1.1"
   id="Layer_1"
   x="0px"
   y="0px"
   width="1360"
   height="1119.3107"
   viewBox="0 0 1360 1119.3107"
   enable-background="new 0 0 2383.939 3370.39"
   xml:space="preserve"
   inkscape:version="0.48.2 r9819"
   sodipodi:docname="JSBSim_Logotype_GillSans_Yellow_Traced.svg"
   inkscape:export-filename="./logo_008_inverted_logogram-concept.png"
   inkscape:export-xdpi="96"
   inkscape:export-ydpi="96"><metadata
   id="metadata11"><rdf:RDF><cc:Work
       rdf:about=""><dc:format>image/svg+xml</dc:format><dc:type
         rdf:resource="http://purl.org/dc/dcmitype/StillImage" /><dc:title></dc:title></cc:Work></rdf:RDF></metadata><defs
   id="defs9"><linearGradient
   inkscape:collect="always"
   xlink:href="#linearGradient3701-3-0"
   id="linearGradient5862-4"
   gradientUnits="userSpaceOnUse"
   gradientTransform="matrix(173.23311,-88.776855,-88.776855,-173.23311,325.46582,575.52393)"
   spreadMethod="pad"
   x1="0"
   y1="0"
   x2="1"
   y2="0" /><linearGradient
   x1="0"
   y1="0"
   x2="1"
   y2="0"
   gradientUnits="userSpaceOnUse"
   gradientTransform="matrix(173.23311,-88.776855,-88.776855,-173.23311,325.46582,575.52393)"
   spreadMethod="pad"
   id="linearGradient3701-3-0"><stop
     style="stop-opacity:1;stop-color:#dbe1f4"
     offset="0"
     id="stop3703-9-9" /><stop
     style="stop-opacity:1;stop-color:#2350a9"
     offset="0.460674"
     id="stop3705-8-4" /><stop
     style="stop-opacity:1;stop-color:#2350a9"
     offset="1"
     id="stop3707-6-8" /></linearGradient><radialGradient
   inkscape:collect="always"
   xlink:href="#radialGradient3903-3-1"
   id="radialGradient5864-5"
   gradientUnits="userSpaceOnUse"
   gradientTransform="matrix(179.74438,0,0,-179.74438,343,556.38965)"
   spreadMethod="pad"
   cx="0"
   cy="0"
   fx="0"
   fy="0"
   r="1" /><radialGradient
   fx="0"
   fy="0"
   cx="0"
   cy="0"
   r="1"
   gradientUnits="userSpaceOnUse"
   gradientTransform="matrix(179.74438,0,0,-179.74438,343,556.38965)"
   spreadMethod="pad"
   id="radialGradient3903-3-1"><stop
     style="stop-opacity:1;stop-color:#dbe1f4"
     offset="0"
     id="stop3905-7-7" /><stop
     style="stop-opacity:1;stop-color:#0b8ed8"
     offset="0.438202"
     id="stop3907-9-11" /><stop
     style="stop-opacity:1;stop-color:#176fc1"
     offset="1"
     id="stop3909-0-5" /></radialGradient>


</defs><sodipodi:namedview
   pagecolor="#ffffff"
   bordercolor="#666666"
   borderopacity="1"
   objecttolerance="10"
   gridtolerance="10"
   guidetolerance="10"
   inkscape:pageopacity="0"
   inkscape:pageshadow="2"
   inkscape:window-width="1680"
   inkscape:window-height="997"
   id="namedview7"
   showgrid="false"
   inkscape:zoom="0.6052836"
   inkscape:cx="464.93113"
   inkscape:cy="826.76504"
   inkscape:window-x="0"
   inkscape:window-y="0"
   inkscape:window-maximized="0"
   inkscape:current-layer="Layer_1"
   fit-margin-top="50"
   fit-margin-left="50"
   fit-margin-right="50"
   fit-margin-bottom="50" />








<g
   style="font-size:388px;font-style:normal;font-variant:normal;font-weight:normal;font-stretch:normal;text-align:start;line-height:125%;letter-spacing:0px;word-spacing:0px;writing-mode:lr-tb;text-anchor:start;fill:#ffed00;fill-opacity:1;stroke:#ffed00;stroke-width:10;stroke-miterlimit:4;stroke-opacity:1;font-family:Gill Sans;-inkscape-font-specification:Gill Sans"
   id="text4523"
   transform="translate(5.77906,-5.042929)"><path
     inkscape:connector-curvature="0"
     d="m 199.3567,124.34912 37.89063,0 0,261.25586 c -7e-5,24.37628 -2.52611,42.37431 -7.57813,53.99414 -4.92583,11.74603 -12.94601,21.09238 -24.06054,28.03906 -11.11461,7.07283 -24.50262,10.60929 -40.16406,10.60938 -2.39974,-9e-5 -6.50455,-0.379 -12.31446,-1.13672 l -7.00976,-35.23828 9.66211,0 c 10.86198,-5e-5 19.13476,-1.32622 24.81836,-3.97852 5.80987,-2.65239 10.35675,-7.32556 13.64062,-14.01953 3.41013,-6.69404 5.11521,-20.90301 5.11523,-42.62695 l 0,-256.89844"
     style="stroke:#ffed00;font-family:Gill Sans;-inkscape-font-specification:Gill Sans"
     id="path3899" /><path
     inkscape:connector-curvature="0"
     d="M 361.52858,277.99561 332.7317,260.56592 c -18.06124,-10.98814 -30.94404,-21.78696 -38.64843,-32.39649 -7.57815,-10.7355 -11.36721,-23.04994 -11.36719,-36.94336 -2e-5,-20.83962 7.1992,-37.76408 21.59766,-50.77343 14.52468,-13.00886 33.34368,-19.51341 56.45703,-19.51368 22.10275,2.7e-4 42.37421,6.18907 60.81445,18.56641 l 0,43.00586 c -19.07175,-18.31358 -39.59582,-27.47047 -61.57227,-27.4707 -12.37768,2.3e-4 -22.54499,2.90518 -30.50195,8.71484 -7.95708,5.68381 -11.9356,13.00933 -11.93555,21.97656 -5e-5,7.95723 2.9049,15.40905 8.71485,22.35547 5.80983,6.94679 15.21932,14.20915 28.22851,21.78711 l 28.98633,17.05078 c 32.33319,19.19804 48.49984,43.70062 48.5,73.50782 -1.6e-4,21.21879 -7.13622,38.45901 -21.4082,51.7207 -14.14596,13.26172 -32.58605,19.89257 -55.32031,19.89258 -26.1446,-10e-6 -49.95252,-8.02018 -71.42383,-24.06055 l 0,-48.12109 c 20.4609,25.89197 44.14252,38.83792 71.04492,38.83789 11.8723,3e-5 21.72385,-3.28382 29.55469,-9.85157 7.9569,-6.69396 11.93542,-15.02989 11.93554,-25.00781 -1.2e-4,-16.16658 -11.6199,-31.44912 -34.85937,-45.84765"
     style="stroke:#ffed00;font-family:Gill Sans;-inkscape-font-specification:Gill Sans"
     id="path3901" /><path
     inkscape:connector-curvature="0"
     d="m 563.67506,389.01514 -89.61132,0 0,-264.66602 69.33984,0 c 21.85014,2.7e-4 38.9009,2.96836 51.15234,8.9043 12.25114,5.81014 21.59749,13.89347 28.03907,24.25 6.44122,10.23069 9.66192,22.10307 9.66211,35.61719 -1.9e-4,26.01839 -13.45135,44.64793 -40.35352,55.88867 19.32405,3.66289 34.66974,11.61992 46.03711,23.87109 11.49328,12.25141 17.24002,26.90243 17.24023,43.95313 -2.1e-4,13.51438 -3.47351,25.57621 -10.41992,36.18554 -6.94681,10.6094 -17.17726,19.26109 -30.6914,25.95508 -13.38818,6.69401 -30.18634,10.04102 -50.39454,10.04102 m -19.13476,-230.94336 -32.58594,0 0,79.57031 25.19727,0 c 20.20822,1.5e-4 34.54349,-3.85206 43.00586,-11.55664 8.58839,-7.70426 12.88266,-17.68211 12.88281,-29.93359 -1.5e-4,-25.38651 -16.1668,-38.07985 -48.5,-38.08008 m 2.8418,113.29297 -35.42774,0 0,83.92773 37.32227,0 c 20.71341,3e-5 34.73293,-1.57874 42.05859,-4.73633 7.45167,-3.28381 13.38786,-8.33589 17.80859,-15.15625 4.54671,-6.82025 6.82015,-14.14576 6.82032,-21.97656 -1.7e-4,-8.08325 -2.39991,-15.47191 -7.19922,-22.16602 -4.67334,-6.6939 -11.36734,-11.68283 -20.08203,-14.96679 -8.71498,-3.28374 -22.4819,-4.92567 -41.30078,-4.92578"
     style="stroke:#ffed00;font-family:Gill Sans;-inkscape-font-specification:Gill Sans"
     id="path3903" /><path
     inkscape:connector-curvature="0"
     d="M 757.86452,277.99561 729.06764,260.56592 C 711.0064,249.57778 698.1236,238.77896 690.4192,228.16943 c -7.57814,-10.7355 -11.3672,-23.04994 -11.36718,-36.94336 -2e-5,-20.83962 7.19919,-37.76408 21.59765,-50.77343 14.52469,-13.00886 33.34368,-19.51341 56.45703,-19.51368 22.10275,2.7e-4 42.37422,6.18907 60.81446,18.56641 l 0,43.00586 c -19.07175,-18.31358 -39.59582,-27.47047 -61.57227,-27.4707 -12.37768,2.3e-4 -22.54499,2.90518 -30.50195,8.71484 -7.95709,5.68381 -11.9356,13.00933 -11.93555,21.97656 -5e-5,7.95723 2.9049,15.40905 8.71485,22.35547 5.80983,6.94679 15.21932,14.20915 28.22851,21.78711 l 28.98633,17.05078 c 32.33318,19.19804 48.49983,43.70062 48.5,73.50782 -1.7e-4,21.21879 -7.13623,38.45901 -21.4082,51.7207 -14.14597,13.26172 -32.58605,19.89257 -55.32032,19.89258 -26.14459,-10e-6 -49.95251,-8.02018 -71.42382,-24.06055 l 0,-48.12109 c 20.4609,25.89197 44.14251,38.83792 71.04492,38.83789 11.87229,3e-5 21.72385,-3.28382 29.55469,-9.85157 7.9569,-6.69396 11.93541,-15.02989 11.93554,-25.00781 -1.3e-4,-16.16658 -11.61991,-31.44912 -34.85937,-45.84765"
     style="stroke:#ffed00;font-family:Gill Sans;-inkscape-font-specification:Gill Sans"
     id="path3905" /><path
     inkscape:connector-curvature="0"
     d="m 883.47194,141.3999 c 5.68354,2.5e-4 10.54617,1.95793 14.58789,5.87305 4.04161,3.9156 6.06244,8.71508 6.0625,14.39844 -6e-5,5.55751 -2.02089,10.35698 -6.0625,14.39843 -4.04172,4.04188 -8.90435,6.06271 -14.58789,6.0625 -5.30473,2.1e-4 -9.9779,-2.02062 -14.01953,-6.0625 -4.04169,-4.16775 -6.06252,-8.96722 -6.0625,-14.39843 -2e-5,-5.30446 2.02081,-9.97763 6.0625,-14.01953 4.04163,-4.16773 8.7148,-6.25171 14.01953,-6.25196 m -17.05078,73.31836 34.48047,0 0,174.29688 -34.48047,0 0,-174.29688"
     style="stroke:#ffed00;font-family:Gill Sans;-inkscape-font-specification:Gill Sans"
     id="path3907" /><path
     inkscape:connector-curvature="0"
     d="m 1093.386,262.46045 0,126.55469 -34.6699,0 0,-97 c -2e-4,-19.32411 -2.5893,-32.77526 -7.7676,-40.35352 -5.1785,-7.70428 -14.2091,-11.55649 -27.0918,-11.55664 -7.1993,1.5e-4 -13.8302,1.64207 -19.8926,4.92578 -5.93624,3.284 -12.75655,9.09389 -20.46091,17.42969 l 0,126.55469 -34.48047,0 0,-174.29688 34.48047,0 0,22.92383 c 17.55591,-17.55582 34.73301,-26.33381 51.53121,-26.33398 22.1028,1.7e-4 39.2167,10.48324 51.3418,31.44921 18.44,-21.21858 37.701,-31.82794 57.7832,-31.82812 16.9243,1.8e-4 30.8175,6.18897 41.6797,18.56641 10.988,12.37775 16.4822,31.25989 16.4824,56.64648 l 0,102.87305 -34.4804,0 0,-103.25196 c -3e-4,-14.52462 -2.9684,-25.63919 -8.9043,-33.34375 -5.9364,-7.70428 -14.4618,-11.55649 -25.5762,-11.55664 -14.2723,1.5e-4 -27.5972,7.19936 -39.9746,21.59766"
     style="stroke:#ffed00;font-family:Gill Sans;-inkscape-font-specification:Gill Sans"
     id="path3909" /></g></svg>