<?xml version="1.0" encoding="UTF-8" standalone="no"?>
<!-- Generator: Adobe Illustrator 15.0.0, SVG Export Plug-In . SVG Version: 6.00 Build 0)  -->

<svg
   xmlns:dc="http://purl.org/dc/elements/1.1/"
   xmlns:cc="http://creativecommons.org/ns#"
   xmlns:rdf="http://www.w3.org/1999/02/22-rdf-syntax-ns#"
   xmlns:svg="http://www.w3.org/2000/svg"
   xmlns="http://www.w3.org/2000/svg"
   xmlns:xlink="http://www.w3.org/1999/xlink"
   xmlns:sodipodi="http://sodipodi.sourceforge.net/DTD/sodipodi-0.dtd"
   xmlns:inkscape="http://www.inkscape.org/namespaces/inkscape"
   version="1.1"
   id="Layer_1"
   x="0px"
   y="0px"
   width="1360"
   height="1119.3107"
   viewBox="0 0 1360 1119.3107"
   enable-background="new 0 0 2383.939 3370.39"
   xml:space="preserve"
   inkscape:version="0.48.2 r9819"
   sodipodi:docname="JSBSim_Logotype_GillSans.svg"
   inkscape:export-filename="./logo_008_inverted_logogram-concept.png"
   inkscape:export-xdpi="96"
   inkscape:export-ydpi="96"><metadata
   id="metadata11"><rdf:RDF><cc:Work
       rdf:about=""><dc:format>image/svg+xml</dc:format><dc:type
         rdf:resource="http://purl.org/dc/dcmitype/StillImage" /><dc:title></dc:title></cc:Work></rdf:RDF></metadata><defs
   id="defs9"><linearGradient
   inkscape:collect="always"
   xlink:href="#linearGradient3701-3-0"
   id="linearGradient5862-4"
   gradientUnits="userSpaceOnUse"
   gradientTransform="matrix(173.23311,-88.776855,-88.776855,-173.23311,325.46582,575.52393)"
   spreadMethod="pad"
   x1="0"
   y1="0"
   x2="1"
   y2="0" /><linearGradient
   x1="0"
   y1="0"
   x2="1"
   y2="0"
   gradientUnits="userSpaceOnUse"
   gradientTransform="matrix(173.23311,-88.776855,-88.776855,-173.23311,325.46582,575.52393)"
   spreadMethod="pad"
   id="linearGradient3701-3-0"><stop
     style="stop-opacity:1;stop-color:#dbe1f4"
     offset="0"
     id="stop3703-9-9" /><stop
     style="stop-opacity:1;stop-color:#2350a9"
     offset="0.460674"
     id="stop3705-8-4" /><stop
     style="stop-opacity:1;stop-color:#2350a9"
     offset="1"
     id="stop3707-6-8" /></linearGradient><radialGradient
   inkscape:collect="always"
   xlink:href="#radialGradient3903-3-1"
   id="radialGradient5864-5"
   gradientUnits="userSpaceOnUse"
   gradientTransform="matrix(179.74438,0,0,-179.74438,343,556.38965)"
   spreadMethod="pad"
   cx="0"
   cy="0"
   fx="0"
   fy="0"
   r="1" /><radialGradient
   fx="0"
   fy="0"
   cx="0"
   cy="0"
   r="1"
   gradientUnits="userSpaceOnUse"
   gradientTransform="matrix(179.74438,0,0,-179.74438,343,556.38965)"
   spreadMethod="pad"
   id="radialGradient3903-3-1"><stop
     style="stop-opacity:1;stop-color:#dbe1f4"
     offset="0"
     id="stop3905-7-7" /><stop
     style="stop-opacity:1;stop-color:#0b8ed8"
     offset="0.438202"
     id="stop3907-9-11" /><stop
     style="stop-opacity:1;stop-color:#176fc1"
     offset="1"
     id="stop3909-0-5" /></radialGradient>


</defs><sodipodi:namedview
   pagecolor="#ffffff"
   bordercolor="#666666"
   borderopacity="1"
   objecttolerance="10"
   gridtolerance="10"
   guidetolerance="10"
   inkscape:pageopacity="0"
   inkscape:pageshadow="2"
   inkscape:window-width="1680"
   inkscape:window-height="997"
   id="namedview7"
   showgrid="false"
   inkscape:zoom="0.6052836"
   inkscape:cx="464.93113"
   inkscape:cy="826.76504"
   inkscape:window-x="0"
   inkscape:window-y="0"
   inkscape:window-maximized="0"
   inkscape:current-layer="Layer_1"
   fit-margin-top="50"
   fit-margin-left="50"
   fit-margin-right="50"
   fit-margin-bottom="50" />








<g
   id="g3994"><rect
     style="fill:#ff0000;fill-opacity:1;stroke:none"
     id="rect4492"
     width="1260"
     height="493.06674"
     x="50"
     y="50" /><g
     transform="translate(5.77906,-5.042929)"
     id="g3960"><g
       style="font-size:62.70420074px;font-style:normal;font-variant:normal;font-weight:bold;font-stretch:normal;text-align:start;line-height:125%;letter-spacing:0px;word-spacing:0px;writing-mode:lr-tb;text-anchor:start;fill:#000000;fill-opacity:1;stroke:none;font-family:Gill Sans;-inkscape-font-specification:Gill Sans Bold"
       id="text4496"><path
         inkscape:connector-curvature="0"
         d="m 325.48248,451.23833 c -5e-5,3.95985 -0.91857,7.6033 -2.75556,10.93037 -1.81667,3.32708 -4.5314,5.97037 -8.1442,7.92988 -3.61287,1.9595 -8.01155,2.93926 -13.19605,2.93926 -5.24578,0 -9.68528,-1.02058 -13.31852,-3.06173 -3.63326,-2.04115 -6.33778,-4.72526 -8.11358,-8.05235 -1.75539,-3.32706 -2.63309,-6.88887 -2.63308,-10.68543 -10e-6,-3.81693 0.87769,-7.37874 2.63308,-10.68543 1.75539,-3.32705 4.4497,-6.00095 8.08297,-8.02173 3.65364,-2.04111 8.10335,-3.06169 13.34913,-3.06173 3.91898,4e-5 7.40935,0.58177 10.47111,1.74518 3.0821,1.1635 5.61313,2.74539 7.59309,4.74568 1.97987,1.97996 3.48012,4.29666 4.50074,6.95013 1.02053,2.63311 1.53082,5.40907 1.53087,8.3279 m -13.04297,0 c -4e-5,-1.59208 -0.23477,-3.04129 -0.7042,-4.34766 -0.4695,-1.32672 -1.1839,-2.46976 -2.14321,-3.42913 -0.93896,-0.97972 -2.09221,-1.73495 -3.45975,-2.26568 -1.3676,-0.55108 -2.94949,-0.82664 -4.74568,-0.82667 -3.42916,3e-5 -6.12348,1.0002 -8.08296,3.0005 -1.95952,2.00035 -2.93928,4.62323 -2.93926,7.86864 -2e-5,3.24545 0.97974,5.87853 2.93926,7.89926 1.9799,2.00034 4.67421,3.0005 8.08296,3.00049 2.3473,10e-6 4.34763,-0.45925 6.00099,-1.37778 1.6533,-0.93891 2.90861,-2.22484 3.76593,-3.85777 0.85724,-1.65332 1.28588,-3.54138 1.28592,-5.6642"
         style="font-family:Gill Sans;-inkscape-font-specification:Gill Sans Bold"
         id="path3912" /><path
         inkscape:connector-curvature="0"
         d="m 365.89729,456.68821 c -4e-5,2.08198 -0.296,4.09252 -0.8879,6.0316 -0.59197,1.9391 -1.50028,3.69449 -2.72494,5.26617 -1.20431,1.55128 -2.76579,2.78618 -4.68444,3.7047 -1.8983,0.8981 -4.11295,1.34716 -6.64395,1.34716 -2.04118,0 -3.65368,-0.21433 -4.83753,-0.64297 -1.16348,-0.42864 -2.32693,-1.00016 -3.49037,-1.71456 l 0,15.98222 -11.02223,0 0,-45.3442 11.02223,0 0,2.81679 c 1.1022,-0.95931 2.31669,-1.75536 3.64345,-2.38815 1.34714,-0.65314 3.16377,-0.97972 5.44988,-0.97975 2.26565,3e-5 4.49051,0.56135 6.67457,1.68395 2.184,1.12266 3.98021,2.87805 5.38864,5.26617 1.40836,2.36776 2.11255,5.35805 2.11259,8.97087 m -11.60395,0.24493 c -3e-5,-1.87784 -0.29599,-3.3985 -0.8879,-4.56197 -0.59196,-1.18385 -1.35739,-2.03093 -2.2963,-2.54124 -0.93895,-0.53067 -1.9085,-0.79602 -2.90864,-0.79605 -1.30636,3e-5 -2.37796,0.21435 -3.21481,0.64297 -0.83689,0.40825 -1.62274,0.92874 -2.35753,1.56148 l 0,11.91012 c 0.3878,0.20413 0.79603,0.43886 1.22469,0.7042 0.44903,0.24495 0.88788,0.45927 1.31654,0.64296 0.44904,0.18371 0.9185,0.3368 1.4084,0.45926 0.51026,0.12248 1.05117,0.18371 1.62271,0.18371 1.73496,0 3.18418,-0.73481 4.34766,-2.20445 1.16343,-1.46962 1.74515,-3.46994 1.74518,-6.00099"
         style="font-family:Gill Sans;-inkscape-font-specification:Gill Sans Bold"
         id="path3914" /><path
         inkscape:connector-curvature="0"
         d="m 403.55656,459.56623 -21.9526,0 c 0.42863,1.89828 1.47982,3.44956 3.15358,4.65383 1.67373,1.20428 3.572,1.80642 5.69482,1.80642 3.71487,0 7.81758,-1.04098 12.30815,-3.12297 l 0,6.82766 c -1.61255,0.83687 -3.57205,1.6023 -5.87852,2.2963 -2.28612,0.67358 -5.20497,1.01037 -8.75655,1.01037 -3.83738,0 -7.10322,-0.71441 -9.79753,-2.14321 -2.69433,-1.42881 -4.71507,-3.3679 -6.06222,-5.81729 -1.32675,-2.44937 -1.99013,-5.22534 -1.99012,-8.3279 -1e-5,-3.06171 0.66337,-5.79685 1.99012,-8.20543 1.34715,-2.42895 3.36789,-4.32722 6.06222,-5.69482 2.69431,-1.38795 5.96015,-2.08194 9.79753,-2.08197 2.53101,3e-5 4.97018,0.55114 7.31753,1.65333 2.36771,1.08184 4.3068,2.86785 5.81729,5.35803 1.53083,2.46981 2.29626,5.66421 2.2963,9.58321 l 0,2.20444 m -10.34865,-5.44988 c -2e-5,-2.00031 -0.5001,-3.5924 -1.50024,-4.77629 -0.97978,-1.20426 -2.39838,-1.8064 -4.25581,-1.80642 -1.83705,2e-5 -3.32709,0.61237 -4.47012,1.83703 -1.12265,1.20431 -1.68396,2.7862 -1.68395,4.74568 l 11.91012,0"
         style="font-family:Gill Sans;-inkscape-font-specification:Gill Sans Bold"
         id="path3916" /><path
         inkscape:connector-curvature="0"
         d="m 442.22619,472.48672 -11.02223,0 0,-16.16592 0,-0.64296 c -2e-5,-1.71455 -0.28578,-3.20459 -0.85728,-4.47013 -0.55114,-1.2859 -1.77583,-1.92886 -3.67407,-1.92889 -0.89813,3e-5 -1.69418,0.17352 -2.38815,0.5205 -0.6736,0.3266 -1.28595,0.75524 -1.83704,1.28592 -0.53072,0.53072 -0.97977,1.04101 -1.34716,1.53087 -0.36742,0.48989 -0.74504,1.01039 -1.13284,1.56148 l 0,18.30913 -11.02222,0 0,-31.16839 11.02222,0 0,4.47012 c 1.73496,-1.85742 3.46994,-3.15355 5.20494,-3.88839 1.75537,-0.7552 3.70467,-1.13281 5.8479,-1.13284 7.47058,3e-5 11.20589,4.47015 11.20593,13.41037 l 0,18.30913"
         style="font-family:Gill Sans;-inkscape-font-specification:Gill Sans Bold"
         id="path3918" /><path
         inkscape:connector-curvature="0"
         d="m 498.96002,460.14796 c -4e-5,2.65351 -0.68382,4.9498 -2.05136,6.88889 -1.34719,1.9391 -3.23525,3.42914 -5.6642,4.47012 -2.42899,1.02058 -5.21516,1.53087 -8.35852,1.53087 -0.87771,0 -1.95952,-0.0612 -3.24543,-0.18371 -1.26553,-0.10206 -2.95968,-0.40823 -5.08247,-0.91852 -2.10239,-0.51028 -4.29663,-1.26551 -6.58271,-2.26568 l 0,-10.40987 c 2.1432,1.32676 4.24559,2.42898 6.30716,3.30666 2.08196,0.87771 4.30681,1.31656 6.67457,1.31655 2.18401,1e-5 3.5924,-0.3572 4.22518,-1.07161 0.65315,-0.7348 0.97973,-1.41859 0.97975,-2.05136 -2e-5,-1.14303 -0.55113,-2.10237 -1.65333,-2.87802 -1.10224,-0.79603 -2.70454,-1.61249 -4.80691,-2.44938 -2.32693,-0.97974 -4.36808,-2.04114 -6.12346,-3.1842 -1.7554,-1.16344 -3.19441,-2.61265 -4.31704,-4.34766 -1.10222,-1.73495 -1.65333,-3.7863 -1.65333,-6.15407 0,-2.28606 0.56131,-4.34762 1.68395,-6.18469 1.12263,-1.85741 2.83719,-3.33725 5.1437,-4.43951 2.30649,-1.10218 5.12328,-1.65329 8.45037,-1.65333 2.36772,4e-5 4.55175,0.23477 6.5521,0.7042 2.02072,0.44909 3.68425,0.95938 4.99062,1.53086 1.30631,0.57156 2.20441,1.02062 2.69432,1.34716 l 0,9.95062 c -1.73501,-1.24507 -3.6741,-2.3575 -5.81728,-3.33729 -2.12283,-0.97971 -4.39871,-1.46959 -6.82766,-1.46962 -1.59211,3e-5 -2.74536,0.3062 -3.45975,0.91851 -0.71442,0.61238 -1.07162,1.36761 -1.0716,2.26568 -2e-5,0.83691 0.35718,1.56151 1.0716,2.17383 0.71439,0.61237 1.9901,1.35739 3.82716,2.23506 3.26582,1.53089 5.87849,2.90867 7.83803,4.13334 1.95947,1.22471 3.49033,2.64331 4.59259,4.2558 1.1226,1.59211 1.68391,3.58224 1.68395,5.97037"
         style="font-family:Gill Sans;-inkscape-font-specification:Gill Sans Bold"
         id="path3920" /><path
         inkscape:connector-curvature="0"
         d="m 540.23212,456.87191 c -4e-5,3.10256 -0.67362,5.86832 -2.02074,8.29728 -1.3472,2.42898 -3.36794,4.34766 -6.06222,5.75605 -2.67394,1.4084 -5.93978,2.1126 -9.79754,2.1126 -3.85779,0 -7.13384,-0.7042 -9.82814,-2.1126 -2.67392,-1.40839 -4.68445,-3.32707 -6.03161,-5.75605 -1.32675,-2.42896 -1.99013,-5.19472 -1.99012,-8.29728 -1e-5,-2.34731 0.3674,-4.48031 1.10222,-6.39901 0.75522,-1.91866 1.88806,-3.61282 3.39852,-5.08247 1.53085,-1.49002 3.40871,-2.63306 5.63358,-3.42914 2.22484,-0.79602 4.79669,-1.19404 7.71555,-1.19407 2.93924,3e-5 5.5315,0.40826 7.77679,1.22469 2.26565,0.79608 4.13331,1.91871 5.60297,3.3679 1.49,1.44924 2.61264,3.1434 3.3679,5.08247 0.75519,1.93911 1.1328,4.08232 1.13284,6.42963 m -11.60395,0 c -3e-5,-2.46978 -0.54093,-4.39866 -1.62272,-5.78667 -1.06142,-1.40837 -2.6127,-2.11257 -4.65383,-2.11259 -2.02075,2e-5 -3.57203,0.70422 -4.65382,2.11259 -1.06142,1.38801 -1.59212,3.31689 -1.5921,5.78667 -2e-5,2.4494 0.54089,4.38849 1.62271,5.81728 1.0818,1.42882 2.62287,2.14322 4.62321,2.14321 2.04113,10e-6 3.59241,-0.70419 4.65383,-2.11259 1.08179,-1.42879 1.62269,-3.37809 1.62272,-5.8479"
         style="font-family:Gill Sans;-inkscape-font-specification:Gill Sans Bold"
         id="path3922" /><path
         inkscape:connector-curvature="0"
         d="m 578.84053,472.48672 -11.05284,0 0,-4.4395 c -1.5513,1.67375 -3.18422,2.92905 -4.89877,3.76592 -1.69417,0.81647 -3.73532,1.2247 -6.12345,1.2247 -4.71508,0 -7.7666,-1.36758 -9.15457,-4.10272 -1.38799,-2.75555 -2.08198,-5.8581 -2.08198,-9.30766 l 0,-18.30913 11.05284,0 0,16.19654 0,0.64297 c -10e-6,1.69416 0.27554,3.1842 0.82667,4.47012 0.57151,1.26552 1.7962,1.89828 3.67407,1.89827 1.61249,10e-6 2.88821,-0.45925 3.82716,-1.37778 0.93891,-0.91851 1.89825,-2.09217 2.87803,-3.52099 l 0,-18.30913 11.05284,0 0,31.16839"
         style="font-family:Gill Sans;-inkscape-font-specification:Gill Sans Bold"
         id="path3924" /><path
         inkscape:connector-curvature="0"
         d="m 613.31558,443.00228 -4.0721,11.05284 c -1.67377,-1.59208 -3.36793,-2.38813 -5.08247,-2.38815 -1.5513,2e-5 -2.89845,0.53072 -4.04148,1.5921 -1.12265,1.04101 -2.20446,2.9801 -3.24543,5.81728 l 0,13.41037 -11.02223,0 0,-31.16839 11.02223,0 0,7.53185 c 0.69397,-1.85742 1.91866,-3.66384 3.67407,-5.41926 1.75537,-1.77577 3.81693,-2.66367 6.18469,-2.6637 1.24508,3e-5 2.32689,0.18373 3.24543,0.55111 0.93891,0.36744 2.05133,0.92875 3.33729,1.68395"
         style="font-family:Gill Sans;-inkscape-font-specification:Gill Sans Bold"
         id="path3926" /><path
         inkscape:connector-curvature="0"
         d="m 643.59609,471.04771 c -0.91855,0.347 -1.88809,0.67358 -2.90864,0.97976 -1.0206,0.28576 -2.17385,0.52049 -3.45975,0.70419 -1.26554,0.20412 -2.65352,0.30618 -4.16395,0.30618 -3.40875,0 -6.29697,-0.57153 -8.6647,-1.71457 -2.34733,-1.16346 -4.16395,-2.61267 -5.44987,-4.34766 -1.26552,-1.75538 -2.14322,-3.54139 -2.63309,-5.35802 -0.48988,-1.81661 -0.73482,-3.41892 -0.73481,-4.80692 -10e-6,-1.38796 0.24493,-2.99026 0.73481,-4.80691 0.51029,-1.8166 1.38798,-3.57199 2.63309,-5.26617 1.24509,-1.69413 3.04131,-3.11273 5.38864,-4.2558 2.36772,-1.14302 5.27636,-1.71454 8.72593,-1.71457 2.30648,3e-5 4.18433,0.16332 5.63358,0.48987 1.44919,0.32662 2.91882,0.76547 4.40889,1.31655 l 0,8.66469 c -3.59246,-1.14302 -6.39904,-1.71455 -8.41976,-1.71457 -1.95952,2e-5 -3.70471,0.59196 -5.23555,1.7758 -1.51047,1.18389 -2.2657,3.02093 -2.26568,5.51111 -2e-5,1.65335 0.3776,3.05154 1.13284,4.19457 0.75521,1.12265 1.71455,1.94931 2.87802,2.48 1.16344,0.53071 2.32689,0.79606 3.49037,0.79605 1.1022,10e-6 2.35751,-0.16328 3.76593,-0.48987 1.40837,-0.32658 3.12293,-0.79604 5.1437,-1.4084 l 0,8.66469"
         style="font-family:Gill Sans;-inkscape-font-specification:Gill Sans Bold"
         id="path3928" /><path
         inkscape:connector-curvature="0"
         d="m 680.94918,459.56623 -21.95259,0 c 0.42862,1.89828 1.47982,3.44956 3.15358,4.65383 1.67372,1.20428 3.57199,1.80642 5.69481,1.80642 3.71487,0 7.81758,-1.04098 12.30815,-3.12297 l 0,6.82766 c -1.61254,0.83687 -3.57205,1.6023 -5.87852,2.2963 -2.28612,0.67358 -5.20496,1.01037 -8.75654,1.01037 -3.83739,0 -7.10323,-0.71441 -9.79753,-2.14321 -2.69433,-1.42881 -4.71507,-3.3679 -6.06223,-5.81729 -1.32675,-2.44937 -1.99012,-5.22534 -1.99012,-8.3279 0,-3.06171 0.66337,-5.79685 1.99012,-8.20543 1.34716,-2.42895 3.3679,-4.32722 6.06223,-5.69482 2.6943,-1.38795 5.96014,-2.08194 9.79753,-2.08197 2.531,3e-5 4.97018,0.55114 7.31753,1.65333 2.36771,1.08184 4.3068,2.86785 5.81728,5.35803 1.53083,2.46981 2.29626,5.66421 2.2963,9.58321 l 0,2.20444 m -10.34864,-5.44988 c -3e-5,-2.00031 -0.50011,-3.5924 -1.50025,-4.77629 -0.97978,-1.20426 -2.39838,-1.8064 -4.2558,-1.80642 -1.83706,2e-5 -3.3271,0.61237 -4.47013,1.83703 -1.12264,1.20431 -1.68396,2.7862 -1.68395,4.74568 l 11.91013,0"
         style="font-family:Gill Sans;-inkscape-font-specification:Gill Sans Bold"
         id="path3930" /><path
         inkscape:connector-curvature="0"
         d="m 737.1625,455.31043 -17.60494,0 0,17.17629 -12.79802,0 0,-42.43555 30.40296,0 0,8.5116 -17.60494,0 0,8.20544 17.60494,0 0,8.54222"
         style="font-family:Gill Sans;-inkscape-font-specification:Gill Sans Bold"
         id="path3932" /><path
         inkscape:connector-curvature="0"
         d="m 755.62473,472.48672 -11.05284,0 0,-42.43555 11.05284,0 0,42.43555"
         style="font-family:Gill Sans;-inkscape-font-specification:Gill Sans Bold"
         id="path3934" /><path
         inkscape:connector-curvature="0"
         d="m 773.96449,434.12327 c -2e-5,1.28596 -0.45928,2.37797 -1.37778,3.27605 -0.91853,0.89814 -2.01055,1.34719 -3.27605,1.34716 -0.85729,3e-5 -1.64314,-0.20409 -2.35753,-0.61235 -0.694,-0.4082 -1.24511,-0.95931 -1.65334,-1.65333 -0.40823,-0.71437 -0.61235,-1.50021 -0.61234,-2.35753 -10e-6,-1.26548 0.44905,-2.35749 1.34716,-3.27605 0.8981,-0.91848 1.99011,-1.37774 3.27605,-1.37778 1.2655,4e-5 2.35752,0.4593 3.27605,1.37778 0.9185,0.91856 1.37776,2.01057 1.37778,3.27605 m 0.8879,38.36345 -11.05284,0 0,-31.16839 11.05284,0 0,31.16839"
         style="font-family:Gill Sans;-inkscape-font-specification:Gill Sans Bold"
         id="path3936" /><path
         inkscape:connector-curvature="0"
         d="m 813.8282,447.96228 -5.44988,0 c 1.91865,1.67377 2.87799,3.72512 2.87802,6.15407 -3e-5,1.28595 -0.27558,2.52084 -0.82666,3.7047 -0.53073,1.18388 -1.32678,2.23507 -2.38815,3.15358 -1.04102,0.91852 -2.33715,1.67375 -3.8884,2.26567 -1.53088,0.57154 -3.28627,0.91853 -5.26617,1.04099 -2.55146,0.10207 -3.82718,0.78585 -3.82716,2.05136 -2e-5,0.48988 0.16328,0.84708 0.48988,1.07161 0.32656,0.22453 0.83685,0.39802 1.53086,0.52049 0.71439,0.10206 1.90846,0.22453 3.58222,0.36741 1.89825,0.16329 3.66385,0.44905 5.29679,0.85728 1.6329,0.40823 3.15355,1.26552 4.56198,2.57185 1.40836,1.30634 2.11256,3.17399 2.11259,5.60297 -3e-5,1.93908 -0.53073,3.65365 -1.5921,5.1437 -1.04101,1.49003 -2.73517,2.65349 -5.08247,3.49037 -2.34735,0.83686 -5.44989,1.25529 -9.30765,1.25531 -5.55195,-2e-5 -9.63425,-0.74504 -12.24691,-2.23506 -2.59227,-1.49005 -3.8884,-3.48018 -3.8884,-5.97037 0,-0.67359 0.16329,-1.44923 0.48988,-2.32692 0.34699,-0.8777 1.06139,-1.72477 2.14321,-2.54123 1.10221,-0.81646 2.69431,-1.36757 4.77629,-1.65334 -0.73482,-0.26534 -1.36758,-0.77563 -1.89827,-1.53086 -0.5307,-0.77564 -0.79605,-1.58189 -0.79605,-2.41876 0,-1.08181 0.3674,-2.15341 1.10222,-3.21482 0.75522,-1.06139 1.96971,-1.74518 3.64346,-2.05136 -2.32692,-0.61233 -4.33745,-1.76558 -6.0316,-3.45975 -1.69416,-1.69414 -2.54124,-3.88838 -2.54124,-6.58272 0,-2.04113 0.38782,-3.82714 1.16346,-5.35802 0.79604,-1.53084 1.88806,-2.77594 3.27605,-3.73531 1.38797,-0.95931 3.00048,-1.66351 4.83753,-2.11259 1.83702,-0.46944 3.84756,-0.70417 6.0316,-0.7042 l 17.11507,0 0,6.64395 m -12.18568,5.26617 c -3e-5,-1.57166 -0.54093,-2.82697 -1.62272,-3.76592 -1.06142,-0.95932 -2.25549,-1.43899 -3.58222,-1.43902 -1.69417,3e-5 -3.03113,0.57155 -4.01087,1.71457 -0.95935,1.14307 -1.43902,2.34735 -1.43901,3.61284 -10e-6,0.87772 0.2041,1.69418 0.61235,2.44938 0.42863,0.75525 1.02056,1.36759 1.7758,1.83704 0.77562,0.44907 1.69414,0.6736 2.75556,0.67358 1.59208,2e-5 2.90862,-0.50007 3.94963,-1.50025 1.04096,-1.00014 1.56145,-2.19422 1.56148,-3.58222 m 2.20444,25.07556 c -2e-5,-1.36758 -0.73484,-2.25548 -2.20444,-2.6637 -1.44924,-0.38783 -2.94949,-0.58174 -4.50074,-0.58173 -2.55146,-1e-5 -4.3987,0.26534 -5.54173,0.79605 -1.12265,0.5511 -1.68396,1.41859 -1.68395,2.60247 -10e-6,2.3269 2.34731,3.49036 7.04197,3.49037 2.10237,-1e-5 3.77611,-0.30619 5.02124,-0.91852 1.24508,-0.59194 1.86763,-1.50026 1.86765,-2.72494"
         style="font-family:Gill Sans;-inkscape-font-specification:Gill Sans Bold"
         id="path3938" /><path
         inkscape:connector-curvature="0"
         d="m 851.02817,472.48672 -11.02222,0 0,-16.16592 c -3e-5,-0.12245 -3e-5,-0.23472 0,-0.33679 0.0204,-0.12245 0.0306,-0.36739 0.0306,-0.73482 -3e-5,-1.49002 -0.31641,-2.85759 -0.94914,-4.10271 -0.63278,-1.24508 -1.83706,-1.86763 -3.61284,-1.86766 -1.388,3e-5 -2.61269,0.46949 -3.67407,1.4084 -1.06142,0.91854 -2.07179,2.08199 -3.03111,3.49037 l 0,18.30913 -11.02223,0 0,-42.43555 11.02223,0 0,15.73728 c 1.81661,-1.93906 3.61282,-3.25561 5.38864,-3.94963 1.77578,-0.71437 3.66384,-1.07157 5.6642,-1.0716 7.47058,3e-5 11.20589,4.19459 11.20592,12.5837 l 0,19.1358"
         style="font-family:Gill Sans;-inkscape-font-specification:Gill Sans Bold"
         id="path3940" /><path
         inkscape:connector-curvature="0"
         d="m 882.25779,470.68031 c -1.14307,0.55111 -2.72496,1.08181 -4.74568,1.59209 -2.00035,0.51029 -3.91903,0.76544 -5.75605,0.76544 -7.94009,0 -11.91013,-3.87819 -11.91012,-11.63457 l 0,-12.43062 -4.99062,0 0,-1.92889 14.78815,-15.0637 1.25531,0 0,9.33827 10.53234,0 0,7.65432 -10.53234,0 0,9.98123 c -2e-5,1.16347 0.0714,2.1024 0.21432,2.81679 0.14286,0.71442 0.54089,1.31656 1.19407,1.80642 0.67356,0.46948 1.68393,0.70421 3.03111,0.7042 1.75537,10e-6 4.06187,-0.7348 6.91951,-2.20444 l 0,8.60346"
         style="font-family:Gill Sans;-inkscape-font-specification:Gill Sans Bold"
         id="path3942" /><path
         inkscape:connector-curvature="0"
         d="m 951.1161,452.03438 c -5e-5,4.34767 -0.7961,7.83804 -2.38815,10.47111 -1.57173,2.63309 -3.42918,4.7661 -5.57235,6.39901 -3.04135,2.38815 -7.29715,3.58222 -12.76741,3.58222 l -0.64296,0 -22.25876,0 0,-42.43555 17.63555,0 c 2.65347,4e-5 4.91915,0.14292 6.79704,0.42864 1.89824,0.26539 3.6026,0.65321 5.11309,1.16346 1.51041,0.48991 2.79634,1.05123 3.85777,1.68395 1.06136,0.61238 2.0105,1.27575 2.84741,1.99012 1.44918,1.1839 2.71469,2.58209 3.79654,4.19457 1.10218,1.61254 1.96967,3.48019 2.60247,5.60296 0.65312,2.12283 0.97971,4.42933 0.97976,6.91951 m -13.01235,-0.55111 c -4e-5,-3.44953 -0.66341,-6.13364 -1.99012,-8.05235 -1.30637,-1.93906 -2.88826,-3.23519 -4.74568,-3.88839 -1.83707,-0.65314 -3.71492,-0.97972 -5.63358,-0.97976 l -5.44988,0 0,25.13679 5.44988,0 c 3.34746,10e-6 6.24589,-0.79604 8.69531,-2.38814 2.44934,-1.59209 3.67403,-4.86814 3.67407,-9.82815"
         style="font-family:Gill Sans;-inkscape-font-specification:Gill Sans Bold"
         id="path3944" /><path
         inkscape:connector-curvature="0"
         d="m 990.64301,441.31833 -21.18716,45.3442 -11.14469,0 8.57284,-18.2479 -12.33877,-27.0963 11.84889,0 6.33778,15.49234 7.19506,-15.49234 10.71605,0"
         style="font-family:Gill Sans;-inkscape-font-specification:Gill Sans Bold"
         id="path3946" /><path
         inkscape:connector-curvature="0"
         d="m 1027.1388,472.48672 -11.0222,0 0,-16.16592 0,-0.64296 c 0,-1.71455 -0.2858,-3.20459 -0.8573,-4.47013 -0.5511,-1.2859 -1.7758,-1.92886 -3.6741,-1.92889 -0.8981,3e-5 -1.6941,0.17352 -2.3881,0.5205 -0.6736,0.3266 -1.2859,0.75524 -1.837,1.28592 -0.5308,0.53072 -0.9798,1.04101 -1.3472,1.53087 -0.3674,0.48989 -0.745,1.01039 -1.1328,1.56148 l 0,18.30913 -11.02226,0 0,-31.16839 11.02226,0 0,4.47012 c 1.7349,-1.85742 3.4699,-3.15355 5.2049,-3.88839 1.7554,-0.7552 3.7047,-1.13281 5.8479,-1.13284 7.4706,3e-5 11.2059,4.47015 11.2059,13.41037 l 0,18.30913"
         style="font-family:Gill Sans;-inkscape-font-specification:Gill Sans Bold"
         id="path3948" /><path
         inkscape:connector-curvature="0"
         d="m 1066.1146,470.92524 c -1.6125,0.63276 -3.1026,1.14305 -4.4701,1.53087 -1.3676,0.38782 -3.0107,0.58173 -4.9294,0.58173 -1.8166,0 -3.0821,-0.31638 -3.7965,-0.94914 -0.7145,-0.65317 -1.2247,-1.43901 -1.5309,-2.35753 -1.1839,0.95934 -2.5004,1.75539 -3.9496,2.38815 -1.4493,0.61234 -3.3475,0.91852 -5.6948,0.91852 -2.2657,0 -4.1028,-0.38782 -5.5111,-1.16346 -1.388,-0.79605 -2.3678,-1.78601 -2.9393,-2.96988 -0.5511,-1.20427 -0.8267,-2.43917 -0.8267,-3.70469 0,-1.91867 0.4797,-3.50056 1.439,-4.74568 0.9798,-1.2655 2.2861,-2.29628 3.919,-3.09234 1.633,-0.79604 3.7966,-1.6227 6.4909,-2.48 1.5309,-0.48986 2.6841,-0.85727 3.4598,-1.10223 0.796,-0.26533 1.3879,-0.46944 1.7758,-0.61234 0.3878,-0.14286 0.796,-0.32657 1.2247,-0.55111 -10e-5,-1.51043 -0.3062,-2.6943 -0.9186,-3.55161 -0.6123,-0.85726 -1.9391,-1.2859 -3.9802,-1.28592 -2.4086,2e-5 -4.6436,0.53072 -6.7052,1.59209 -2.0616,1.06143 -3.9496,2.429 -5.6642,4.10272 l 0,-8.45037 c 1.3676,-0.97972 2.8474,-1.77577 4.4395,-2.38815 1.5921,-0.63273 3.2556,-1.10219 4.9906,-1.40839 1.735,-0.30614 3.4904,-0.45923 5.2662,-0.45926 4.5109,3e-5 7.8992,0.87772 10.1649,2.63308 2.2861,1.73501 3.4292,4.13336 3.4292,7.19507 l 0,12.03259 c 0,1.14305 0.102,2.00034 0.3062,2.57185 0.2245,0.55112 0.6225,0.82667 1.194,0.82667 0.694,0 1.6329,-0.29596 2.8168,-0.8879 l 0,5.78666 m -15.3392,-5.97037 0,-7.37876 c -2.6127,1.06141 -4.5212,2.02075 -5.7255,2.87802 -1.2043,0.83689 -1.8064,1.97993 -1.8064,3.42914 0,1.04099 0.296,1.83704 0.8879,2.38815 0.6123,0.55111 1.3165,0.82667 2.1126,0.82666 0.7552,1e-5 1.5002,-0.20411 2.2351,-0.61234 0.7552,-0.42864 1.5206,-0.93893 2.2963,-1.53087"
         style="font-family:Gill Sans;-inkscape-font-specification:Gill Sans Bold"
         id="path3950" /><path
         inkscape:connector-curvature="0"
         d="m 1125.0835,472.48672 -11.0222,0 0,-16.62518 c -10e-5,-2.20443 -0.3675,-3.84755 -1.1022,-4.92938 -0.7145,-1.1022 -1.8575,-1.65331 -3.4292,-1.65334 -1.5309,3e-5 -2.7862,0.46949 -3.7659,1.4084 -0.9798,0.91854 -1.9595,2.08199 -2.9393,3.49037 l 0,18.30913 -11.0222,0 0,-16.62518 c 0,-2.10237 -0.3368,-3.72508 -1.0103,-4.86815 -0.6737,-1.14302 -1.8677,-1.71454 -3.5823,-1.71457 -0.8165,3e-5 -1.5717,0.16332 -2.2657,0.48988 -0.6735,0.32661 -1.2247,0.69401 -1.6533,1.10222 -0.4286,0.40825 -0.9491,1.01039 -1.5615,1.80642 -0.6123,0.79607 -1.0001,1.29615 -1.1634,1.50025 l 0,18.30913 -11.0222,0 0,-31.16839 11.0222,0 0,4.47012 c 1.6533,-1.75536 3.3372,-3.03108 5.0518,-3.82716 1.7146,-0.79602 3.6945,-1.19404 5.9398,-1.19407 1.0614,3e-5 2.0717,0.10209 3.0311,0.30617 0.9593,0.18373 1.8982,0.51032 2.8168,0.97975 0.9389,0.4695 1.786,1.11246 2.5412,1.92889 0.7552,0.81649 1.3573,1.76563 1.8064,2.84741 1.7758,-2.0003 3.6128,-3.51075 5.5111,-4.53136 1.9187,-1.02054 4.1231,-1.53083 6.6134,-1.53086 2.4901,3e-5 4.5721,0.50011 6.2459,1.50024 1.6941,1.0002 2.9392,2.44941 3.7353,4.34766 0.8164,1.87788 1.2247,4.16397 1.2247,6.85827 l 0,19.01333"
         style="font-family:Gill Sans;-inkscape-font-specification:Gill Sans Bold"
         id="path3952" /><path
         inkscape:connector-curvature="0"
         d="m 1142.3517,434.12327 c -10e-5,1.28596 -0.4593,2.37797 -1.3778,3.27605 -0.9185,0.89814 -2.0106,1.34719 -3.2761,1.34716 -0.8573,3e-5 -1.6431,-0.20409 -2.3575,-0.61235 -0.694,-0.4082 -1.2451,-0.95931 -1.6533,-1.65333 -0.4083,-0.71437 -0.6124,-1.50021 -0.6124,-2.35753 0,-1.26548 0.4491,-2.35749 1.3472,-3.27605 0.8981,-0.91848 1.9901,-1.37774 3.276,-1.37778 1.2655,4e-5 2.3576,0.4593 3.2761,1.37778 0.9185,0.91856 1.3777,2.01057 1.3778,3.27605 m 0.8879,38.36345 -11.0529,0 0,-31.16839 11.0529,0 0,31.16839"
         style="font-family:Gill Sans;-inkscape-font-specification:Gill Sans Bold"
         id="path3954" /><path
         inkscape:connector-curvature="0"
         d="m 1177.5615,471.04771 c -0.9185,0.347 -1.888,0.67358 -2.9086,0.97976 -1.0206,0.28576 -2.1738,0.52049 -3.4597,0.70419 -1.2656,0.20412 -2.6536,0.30618 -4.164,0.30618 -3.4087,0 -6.297,-0.57153 -8.6647,-1.71457 -2.3473,-1.16346 -4.1639,-2.61267 -5.4499,-4.34766 -1.2655,-1.75538 -2.1432,-3.54139 -2.6331,-5.35802 -0.4898,-1.81661 -0.7348,-3.41892 -0.7348,-4.80692 0,-1.38796 0.245,-2.99026 0.7348,-4.80691 0.5103,-1.8166 1.388,-3.57199 2.6331,-5.26617 1.2451,-1.69413 3.0413,-3.11273 5.3887,-4.2558 2.3677,-1.14302 5.2763,-1.71454 8.7259,-1.71457 2.3065,3e-5 4.1843,0.16332 5.6336,0.48987 1.4492,0.32662 2.9188,0.76547 4.4089,1.31655 l 0,8.66469 c -3.5925,-1.14302 -6.3991,-1.71455 -8.4198,-1.71457 -1.9595,2e-5 -3.7047,0.59196 -5.2355,1.7758 -1.5105,1.18389 -2.2657,3.02093 -2.2657,5.51111 0,1.65335 0.3776,3.05154 1.1328,4.19457 0.7552,1.12265 1.7146,1.94931 2.878,2.48 1.1635,0.53071 2.3269,0.79606 3.4904,0.79605 1.1022,10e-6 2.3575,-0.16328 3.7659,-0.48987 1.4084,-0.32658 3.123,-0.79604 5.1437,-1.4084 l 0,8.66469"
         style="font-family:Gill Sans;-inkscape-font-specification:Gill Sans Bold"
         id="path3956" /><path
         inkscape:connector-curvature="0"
         d="m 1207.3215,463.39339 c 0,2.85762 -1.0512,5.18453 -3.1535,6.98074 -2.082,1.77581 -5.1846,2.66371 -9.3077,2.66371 -2.3065,0 -4.3579,-0.20412 -6.1541,-0.61235 -1.7962,-0.42864 -3.7557,-1.03078 -5.8785,-1.80642 l 0,-7.83802 c 1.8575,1.0614 3.47,1.86766 4.8375,2.41876 1.3676,0.55112 2.8679,0.82667 4.5008,0.82667 2.7555,0 4.1333,-0.75522 4.1333,-2.26568 0,-0.51028 -0.2041,-0.95933 -0.6123,-1.34716 -0.3879,-0.40822 -1.0818,-0.85728 -2.082,-1.34716 -0.9798,-0.51028 -2.2963,-1.11242 -3.9496,-1.80642 -2.0412,-0.8981 -3.7762,-2.10237 -5.205,-3.61284 -1.4288,-1.51044 -2.1432,-3.35768 -2.1432,-5.54173 0,-1.55125 0.4695,-3.04129 1.4084,-4.47012 0.9594,-1.42878 2.3984,-2.59224 4.3171,-3.49038 1.9186,-0.91848 4.2353,-1.37774 6.9501,-1.37777 0.6531,3e-5 1.4798,0.0511 2.48,0.15308 1.0205,0.0817 2.2963,0.31641 3.8271,0.7042 1.5513,0.38785 3.0209,0.93896 4.4089,1.65333 l 0,7.62371 c -0.6532,-0.3878 -1.2043,-0.71438 -1.6533,-0.97975 -0.4287,-0.26533 -1.0104,-0.5613 -1.7452,-0.88791 -0.7348,-0.32656 -1.6023,-0.61232 -2.6025,-0.85728 -0.9797,-0.26533 -1.9901,-0.398 -3.0311,-0.39802 -1.2655,2e-5 -2.133,0.24496 -2.6024,0.73481 -0.4695,0.4899 -0.7042,0.97978 -0.7042,1.46963 0,0.51031 0.2449,0.98998 0.7348,1.43901 0.4898,0.42867 1.5819,0.96957 3.276,1.62272 2.4494,0.93895 4.4089,1.90849 5.8785,2.90864 1.4697,0.97977 2.5106,2.06158 3.123,3.24543 0.6327,1.18388 0.9491,2.58207 0.9491,4.19457"
         style="font-family:Gill Sans;-inkscape-font-specification:Gill Sans Bold"
         id="path3958" /></g><g
       style="font-size:388px;font-style:normal;font-variant:normal;font-weight:normal;font-stretch:normal;text-align:start;line-height:125%;letter-spacing:0px;word-spacing:0px;writing-mode:lr-tb;text-anchor:start;fill:#ffed00;fill-opacity:1;stroke:#ffed00;stroke-width:10;stroke-miterlimit:4;stroke-opacity:1;font-family:Gill Sans;-inkscape-font-specification:Gill Sans"
       id="text4523"><path
         inkscape:connector-curvature="0"
         d="m 199.3567,124.34912 37.89063,0 0,261.25586 c -7e-5,24.37628 -2.52611,42.37431 -7.57813,53.99414 -4.92583,11.74603 -12.94601,21.09238 -24.06054,28.03906 -11.11461,7.07283 -24.50262,10.60929 -40.16406,10.60938 -2.39974,-9e-5 -6.50455,-0.379 -12.31446,-1.13672 l -7.00976,-35.23828 9.66211,0 c 10.86198,-5e-5 19.13476,-1.32622 24.81836,-3.97852 5.80987,-2.65239 10.35675,-7.32556 13.64062,-14.01953 3.41013,-6.69404 5.11521,-20.90301 5.11523,-42.62695 l 0,-256.89844"
         style="stroke:#ffed00;font-family:Gill Sans;-inkscape-font-specification:Gill Sans"
         id="path3899" /><path
         inkscape:connector-curvature="0"
         d="M 361.52858,277.99561 332.7317,260.56592 c -18.06124,-10.98814 -30.94404,-21.78696 -38.64843,-32.39649 -7.57815,-10.7355 -11.36721,-23.04994 -11.36719,-36.94336 -2e-5,-20.83962 7.1992,-37.76408 21.59766,-50.77343 14.52468,-13.00886 33.34368,-19.51341 56.45703,-19.51368 22.10275,2.7e-4 42.37421,6.18907 60.81445,18.56641 l 0,43.00586 c -19.07175,-18.31358 -39.59582,-27.47047 -61.57227,-27.4707 -12.37768,2.3e-4 -22.54499,2.90518 -30.50195,8.71484 -7.95708,5.68381 -11.9356,13.00933 -11.93555,21.97656 -5e-5,7.95723 2.9049,15.40905 8.71485,22.35547 5.80983,6.94679 15.21932,14.20915 28.22851,21.78711 l 28.98633,17.05078 c 32.33319,19.19804 48.49984,43.70062 48.5,73.50782 -1.6e-4,21.21879 -7.13622,38.45901 -21.4082,51.7207 -14.14596,13.26172 -32.58605,19.89257 -55.32031,19.89258 -26.1446,-10e-6 -49.95252,-8.02018 -71.42383,-24.06055 l 0,-48.12109 c 20.4609,25.89197 44.14252,38.83792 71.04492,38.83789 11.8723,3e-5 21.72385,-3.28382 29.55469,-9.85157 7.9569,-6.69396 11.93542,-15.02989 11.93554,-25.00781 -1.2e-4,-16.16658 -11.6199,-31.44912 -34.85937,-45.84765"
         style="stroke:#ffed00;font-family:Gill Sans;-inkscape-font-specification:Gill Sans"
         id="path3901" /><path
         inkscape:connector-curvature="0"
         d="m 563.67506,389.01514 -89.61132,0 0,-264.66602 69.33984,0 c 21.85014,2.7e-4 38.9009,2.96836 51.15234,8.9043 12.25114,5.81014 21.59749,13.89347 28.03907,24.25 6.44122,10.23069 9.66192,22.10307 9.66211,35.61719 -1.9e-4,26.01839 -13.45135,44.64793 -40.35352,55.88867 19.32405,3.66289 34.66974,11.61992 46.03711,23.87109 11.49328,12.25141 17.24002,26.90243 17.24023,43.95313 -2.1e-4,13.51438 -3.47351,25.57621 -10.41992,36.18554 -6.94681,10.6094 -17.17726,19.26109 -30.6914,25.95508 -13.38818,6.69401 -30.18634,10.04102 -50.39454,10.04102 m -19.13476,-230.94336 -32.58594,0 0,79.57031 25.19727,0 c 20.20822,1.5e-4 34.54349,-3.85206 43.00586,-11.55664 8.58839,-7.70426 12.88266,-17.68211 12.88281,-29.93359 -1.5e-4,-25.38651 -16.1668,-38.07985 -48.5,-38.08008 m 2.8418,113.29297 -35.42774,0 0,83.92773 37.32227,0 c 20.71341,3e-5 34.73293,-1.57874 42.05859,-4.73633 7.45167,-3.28381 13.38786,-8.33589 17.80859,-15.15625 4.54671,-6.82025 6.82015,-14.14576 6.82032,-21.97656 -1.7e-4,-8.08325 -2.39991,-15.47191 -7.19922,-22.16602 -4.67334,-6.6939 -11.36734,-11.68283 -20.08203,-14.96679 -8.71498,-3.28374 -22.4819,-4.92567 -41.30078,-4.92578"
         style="stroke:#ffed00;font-family:Gill Sans;-inkscape-font-specification:Gill Sans"
         id="path3903" /><path
         inkscape:connector-curvature="0"
         d="M 757.86452,277.99561 729.06764,260.56592 C 711.0064,249.57778 698.1236,238.77896 690.4192,228.16943 c -7.57814,-10.7355 -11.3672,-23.04994 -11.36718,-36.94336 -2e-5,-20.83962 7.19919,-37.76408 21.59765,-50.77343 14.52469,-13.00886 33.34368,-19.51341 56.45703,-19.51368 22.10275,2.7e-4 42.37422,6.18907 60.81446,18.56641 l 0,43.00586 c -19.07175,-18.31358 -39.59582,-27.47047 -61.57227,-27.4707 -12.37768,2.3e-4 -22.54499,2.90518 -30.50195,8.71484 -7.95709,5.68381 -11.9356,13.00933 -11.93555,21.97656 -5e-5,7.95723 2.9049,15.40905 8.71485,22.35547 5.80983,6.94679 15.21932,14.20915 28.22851,21.78711 l 28.98633,17.05078 c 32.33318,19.19804 48.49983,43.70062 48.5,73.50782 -1.7e-4,21.21879 -7.13623,38.45901 -21.4082,51.7207 -14.14597,13.26172 -32.58605,19.89257 -55.32032,19.89258 -26.14459,-10e-6 -49.95251,-8.02018 -71.42382,-24.06055 l 0,-48.12109 c 20.4609,25.89197 44.14251,38.83792 71.04492,38.83789 11.87229,3e-5 21.72385,-3.28382 29.55469,-9.85157 7.9569,-6.69396 11.93541,-15.02989 11.93554,-25.00781 -1.3e-4,-16.16658 -11.61991,-31.44912 -34.85937,-45.84765"
         style="stroke:#ffed00;font-family:Gill Sans;-inkscape-font-specification:Gill Sans"
         id="path3905" /><path
         inkscape:connector-curvature="0"
         d="m 883.47194,141.3999 c 5.68354,2.5e-4 10.54617,1.95793 14.58789,5.87305 4.04161,3.9156 6.06244,8.71508 6.0625,14.39844 -6e-5,5.55751 -2.02089,10.35698 -6.0625,14.39843 -4.04172,4.04188 -8.90435,6.06271 -14.58789,6.0625 -5.30473,2.1e-4 -9.9779,-2.02062 -14.01953,-6.0625 -4.04169,-4.16775 -6.06252,-8.96722 -6.0625,-14.39843 -2e-5,-5.30446 2.02081,-9.97763 6.0625,-14.01953 4.04163,-4.16773 8.7148,-6.25171 14.01953,-6.25196 m -17.05078,73.31836 34.48047,0 0,174.29688 -34.48047,0 0,-174.29688"
         style="stroke:#ffed00;font-family:Gill Sans;-inkscape-font-specification:Gill Sans"
         id="path3907" /><path
         inkscape:connector-curvature="0"
         d="m 1093.386,262.46045 0,126.55469 -34.6699,0 0,-97 c -2e-4,-19.32411 -2.5893,-32.77526 -7.7676,-40.35352 -5.1785,-7.70428 -14.2091,-11.55649 -27.0918,-11.55664 -7.1993,1.5e-4 -13.8302,1.64207 -19.8926,4.92578 -5.93624,3.284 -12.75655,9.09389 -20.46091,17.42969 l 0,126.55469 -34.48047,0 0,-174.29688 34.48047,0 0,22.92383 c 17.55591,-17.55582 34.73301,-26.33381 51.53121,-26.33398 22.1028,1.7e-4 39.2167,10.48324 51.3418,31.44921 18.44,-21.21858 37.701,-31.82794 57.7832,-31.82812 16.9243,1.8e-4 30.8175,6.18897 41.6797,18.56641 10.988,12.37775 16.4822,31.25989 16.4824,56.64648 l 0,102.87305 -34.4804,0 0,-103.25196 c -3e-4,-14.52462 -2.9684,-25.63919 -8.9043,-33.34375 -5.9364,-7.70428 -14.4618,-11.55649 -25.5762,-11.55664 -14.2723,1.5e-4 -27.5972,7.19936 -39.9746,21.59766"
         style="stroke:#ffed00;font-family:Gill Sans;-inkscape-font-specification:Gill Sans"
         id="path3909" /></g></g></g></svg>