<?xml version="1.0" encoding="UTF-8" standalone="no"?>
<!-- Created with Inkscape (http://www.inkscape.org/) -->

<svg
   xmlns:dc="http://purl.org/dc/elements/1.1/"
   xmlns:cc="http://creativecommons.org/ns#"
   xmlns:rdf="http://www.w3.org/1999/02/22-rdf-syntax-ns#"
   xmlns:svg="http://www.w3.org/2000/svg"
   xmlns="http://www.w3.org/2000/svg"
   xmlns:sodipodi="http://sodipodi.sourceforge.net/DTD/sodipodi-0.dtd"
   xmlns:inkscape="http://www.inkscape.org/namespaces/inkscape"
   width="668.6875"
   height="581.70715"
   id="svg4021"
   version="1.1"
   inkscape:version="0.48.2 r9819"
   sodipodi:docname="Beechcraft_King_Air_99_Topview.svg">
  <defs
     id="defs4023" />
  <sodipodi:namedview
     id="base"
     pagecolor="#ffffff"
     bordercolor="#666666"
     borderopacity="1.0"
     inkscape:pageopacity="0.0"
     inkscape:pageshadow="2"
     inkscape:zoom="0.98994949"
     inkscape:cx="335.04789"
     inkscape:cy="341.83115"
     inkscape:document-units="px"
     inkscape:current-layer="layer1"
     showgrid="false"
     inkscape:window-width="1680"
     inkscape:window-height="1002"
     inkscape:window-x="0"
     inkscape:window-y="0"
     inkscape:window-maximized="0"
     fit-margin-top="5"
     fit-margin-left="5"
     fit-margin-bottom="5"
     fit-margin-right="5" />
  <metadata
     id="metadata4026">
    <rdf:RDF>
      <cc:Work
         rdf:about="">
        <dc:format>image/svg+xml</dc:format>
        <dc:type
           rdf:resource="http://purl.org/dc/dcmitype/StillImage" />
        <dc:title />
      </cc:Work>
    </rdf:RDF>
  </metadata>
  <g
     inkscape:label="Livello 1"
     inkscape:groupmode="layer"
     id="layer1"
     transform="translate(-205.46335,-399.91782)">
    <g
       id="g4394">
      <g
         id="g4405"
         style="display:inline;filter:url(#filter3222)"
         transform="translate(739.33835,357.62614)">
        <path
           style="fill:#efece9;fill-opacity:1;stroke:#000000;stroke-width:1.3045218;stroke-linecap:round;stroke-linejoin:round;stroke-miterlimit:4;stroke-opacity:1;stroke-dasharray:none;display:inline"
           d="m -96.666798,229.05926 13.872999,0 0,-41.09929 c 0,-5.55018 -4.464465,-8.72237 -13.872999,-8.13297 z"
           id="path4560"
           inkscape:connector-curvature="0"
           sodipodi:nodetypes="ccscc" />
        <path
           style="fill:#efece9;fill-opacity:1;stroke:#000000;stroke-width:1.39999998;stroke-linecap:round;stroke-linejoin:round;stroke-miterlimit:4;stroke-opacity:1;stroke-dasharray:none;display:inline"
           d="m -302.38171,229.05926 -13.873,0 0,-41.09929 c 0,-5.55018 4.46447,-8.72237 13.873,-8.13297 z"
           id="path4528"
           inkscape:connector-curvature="0"
           sodipodi:nodetypes="ccscc" />
      </g>
      <g
         id="g3991"
         style="display:inline;filter:url(#filter3222)"
         transform="translate(739.33835,357.62614)">
        <path
           id="path4309"
           style="fill:#ffffff;fill-opacity:1;stroke:#000000;stroke-width:1.40426373;stroke-linecap:round;stroke-linejoin:round;stroke-miterlimit:4;stroke-opacity:1;stroke-dasharray:none"
           d="m -163.78153,346.94659 c 1.28128,-8.42783 5.03704,-18.97259 12.04061,-18.97259 l 69.817481,0 206.640789,-33.7307 4.40431,-0.19388 0,-39.54101 c 0,-10.45153 -3.36766,-10.90479 -11.38037,-11.32308 l -171.961013,-8.97697 -38.102167,-17.08492 -18.82509,6.59606 -55.64116,-16.82885 -32.73611,0 -32.73611,0 -55.64116,16.82885 -18.82509,-6.59606 -38.10217,17.08492 -171.96101,8.97697 c -8.01271,0.41829 -11.38037,0.87155 -11.38037,11.32308 l 0,39.54101 4.40431,0.19388 206.64079,33.7307 69.81748,0 c 7.00357,0 10.75933,10.54476 12.04061,18.97259 l 35.74272,-1.2e-4 z"
           inkscape:connector-curvature="0"
           sodipodi:nodetypes="cscccsscccccccccsscccsccc" />
        <g
           id="g3973"
           transform="translate(-0.59081507,0)">
          <g
             transform="translate(0.27690056,0)"
             id="g3171">
            <g
               id="g3149"
               transform="translate(-1.2626907,0)">
              <path
                 style="fill:none;stroke:#646464;stroke-width:0.80000001;stroke-linecap:round;stroke-linejoin:round;stroke-miterlimit:4;stroke-opacity:1;stroke-dasharray:none;display:inline"
                 d="m -315.81085,326.38046 0,-103.94979"
                 id="path4476"
                 inkscape:connector-curvature="0"
                 sodipodi:nodetypes="cc" />
              <path
                 sodipodi:nodetypes="cccc"
                 inkscape:connector-curvature="0"
                 id="path4478"
                 d="m -400.30492,313.48143 1.2184,-12.65746 83.27567,10.31242 0,16.00979"
                 style="fill:none;stroke:#646464;stroke-width:0.80000001;stroke-linecap:round;stroke-linejoin:round;stroke-miterlimit:4;stroke-opacity:1;stroke-dasharray:none;display:inline" />
              <path
                 style="fill:none;stroke:#646464;stroke-width:0.80000001;stroke-linecap:round;stroke-linejoin:round;stroke-miterlimit:4;stroke-opacity:1;stroke-dasharray:none;display:inline"
                 d="m -510.29946,281.20078 103.61418,11.58853 0.0383,4.50453 7.71263,1.15957 -1.41832,15.00233"
                 id="path4480"
                 inkscape:connector-curvature="0"
                 sodipodi:nodetypes="ccccc" />
              <path
                 style="fill:none;stroke:#646464;stroke-width:0.80000001;stroke-linecap:round;stroke-linejoin:round;stroke-miterlimit:4;stroke-opacity:1;stroke-dasharray:none;display:inline"
                 d="m -510.29946,295.37922 0,-51.73321"
                 id="path4482"
                 inkscape:connector-curvature="0"
                 sodipodi:nodetypes="cc" />
              <path
                 style="fill:none;stroke:#646464;stroke-width:0.80000001;stroke-linecap:round;stroke-linejoin:round;stroke-miterlimit:4;stroke-opacity:1;stroke-dasharray:none;display:inline"
                 d="m -510.29946,243.7603 0,5.23133 166.59974,-6.07188 0,-7.5456"
                 id="path4484"
                 inkscape:connector-curvature="0"
                 sodipodi:nodetypes="cccc" />
              <path
                 style="fill:none;stroke:#646464;stroke-width:0.80000001;stroke-linecap:round;stroke-linejoin:round;stroke-miterlimit:4;stroke-opacity:1;stroke-dasharray:none;display:inline"
                 d="m -248.09209,326.91072 c 4.02179,-8.6834 12.13946,-22.81606 13.97588,-42.1075"
                 id="path4494"
                 inkscape:connector-curvature="0"
                 sodipodi:nodetypes="cc" />
            </g>
          </g>
          <g
             id="g3957"
             transform="matrix(-1,0,0,1,-398.14377,0)">
            <g
               transform="translate(-1.2626907,0)"
               id="g3959">
              <path
                 sodipodi:nodetypes="cc"
                 inkscape:connector-curvature="0"
                 id="path3961"
                 d="m -315.81085,326.38046 0,-103.94979"
                 style="fill:none;stroke:#646464;stroke-width:0.80000001;stroke-linecap:round;stroke-linejoin:round;stroke-miterlimit:4;stroke-opacity:1;stroke-dasharray:none;display:inline" />
              <path
                 style="fill:none;stroke:#646464;stroke-width:0.80000001;stroke-linecap:round;stroke-linejoin:round;stroke-miterlimit:4;stroke-opacity:1;stroke-dasharray:none;display:inline"
                 d="m -400.30492,313.48143 1.2184,-12.65746 83.27567,10.31242 0,15.90979"
                 id="path3963"
                 inkscape:connector-curvature="0"
                 sodipodi:nodetypes="cccc" />
              <path
                 sodipodi:nodetypes="ccccc"
                 inkscape:connector-curvature="0"
                 id="path3965"
                 d="m -510.29946,281.20078 103.61418,11.58853 0.0383,4.50453 7.71263,1.15957 -1.41832,15.00233"
                 style="fill:none;stroke:#646464;stroke-width:0.80000001;stroke-linecap:round;stroke-linejoin:round;stroke-miterlimit:4;stroke-opacity:1;stroke-dasharray:none;display:inline" />
              <path
                 sodipodi:nodetypes="cc"
                 inkscape:connector-curvature="0"
                 id="path3967"
                 d="m -510.29946,295.37922 0,-51.73321"
                 style="fill:none;stroke:#646464;stroke-width:0.80000001;stroke-linecap:round;stroke-linejoin:round;stroke-miterlimit:4;stroke-opacity:1;stroke-dasharray:none;display:inline" />
              <path
                 sodipodi:nodetypes="cccc"
                 inkscape:connector-curvature="0"
                 id="path3969"
                 d="m -510.29946,243.7603 0,5.23133 166.59974,-6.07188 0,-7.5456"
                 style="fill:none;stroke:#646464;stroke-width:0.80000001;stroke-linecap:round;stroke-linejoin:round;stroke-miterlimit:4;stroke-opacity:1;stroke-dasharray:none;display:inline" />
              <path
                 sodipodi:nodetypes="cc"
                 inkscape:connector-curvature="0"
                 id="path3971"
                 d="m -248.09209,326.91072 c 4.02179,-8.6834 12.13946,-22.81606 13.97588,-42.1075"
                 style="fill:none;stroke:#646464;stroke-width:0.80000001;stroke-linecap:round;stroke-linejoin:round;stroke-miterlimit:4;stroke-opacity:1;stroke-dasharray:none;display:inline" />
              <path
                 style="fill:none;stroke:#646464;stroke-width:0.80000001;stroke-linecap:round;stroke-linejoin:round;stroke-miterlimit:4;stroke-opacity:1;stroke-dasharray:none;display:inline"
                 d="m -315.90538,311.14018 75.01397,0"
                 id="path4011"
                 inkscape:connector-curvature="0"
                 sodipodi:nodetypes="cc" />
            </g>
          </g>
        </g>
      </g>
      <g
         id="g4374"
         style="display:inline;filter:url(#filter3222)"
         transform="translate(739.33835,357.62614)">
        <path
           style="fill:none;stroke:#646464;stroke-width:0.80000001;stroke-linecap:round;stroke-linejoin:round;stroke-miterlimit:4;stroke-opacity:1;stroke-dasharray:none;display:inline"
           d="m -317.311,311.13639 74.705,0.0834"
           id="path4486"
           inkscape:connector-curvature="0"
           sodipodi:nodetypes="cc" />
        <g
           id="g4530"
           transform="matrix(0,-1.1836254,0.99844898,0,-35.417268,-915.34229)">
          <g
             id="g4532"
             transform="translate(0,0.461235)">
            <path
               sodipodi:nodetypes="ccsssssc"
               inkscape:connector-curvature="0"
               id="path4534"
               d="m -879.99332,-254.82669 c -0.78001,0.65629 -1.41889,1.1696 -2.34002,3.02904 -0.12003,2.08667 -0.24433,5.73833 -0.40114,7.92597 -0.58875,8.21385 -0.73194,21.86555 -0.40115,23.47502 0.21913,1.06616 0.59029,2.27837 1.53773,3.02903 0.8484,0.67219 1.4793,0.43532 1.83858,-0.45435 0.26522,-0.65676 0.39131,-2.14497 0.36771,-3.07952 -0.28841,-11.42422 -0.41087,-22.62414 -0.60171,-33.92519 z"
               style="fill:#e2eff5;fill-opacity:1;stroke:#000000;stroke-width:1.28782833;stroke-linecap:butt;stroke-linejoin:round;stroke-miterlimit:4;stroke-opacity:1;stroke-dasharray:none;display:inline" />
            <path
               style="fill:#e2eff5;fill-opacity:1;stroke:#000000;stroke-width:1.28782833;stroke-linecap:butt;stroke-linejoin:round;stroke-miterlimit:4;stroke-opacity:1;stroke-dasharray:none;display:inline"
               d="m -882.70549,-259.3022 c 0.78001,-0.65629 1.41889,-1.1696 2.34002,-3.02904 0.12003,-2.08667 0.24433,-5.73833 0.40114,-7.92597 0.58875,-8.21385 0.73194,-21.86555 0.40115,-23.47502 -0.21913,-1.06616 -0.59029,-2.27837 -1.53773,-3.02903 -0.8484,-0.67219 -1.4793,-0.43532 -1.83858,0.45435 -0.26522,0.65676 -0.39131,2.14497 -0.36771,3.07952 0.28841,11.42422 0.41087,22.62414 0.60171,33.92519 z"
               id="path4536"
               inkscape:connector-curvature="0"
               sodipodi:nodetypes="ccsssssc" />
          </g>
          <path
             sodipodi:nodetypes="ssccsss"
             inkscape:connector-curvature="0"
             id="path4538"
             d="m -867.43127,-258.27501 c -3.14871,-2.86424 -6.51714,-4.52168 -11.38393,-5.9375 -1.38264,-0.40223 -3.50731,-0.81951 -5.22322,-0.625 l 0,16.51786 c 1.78872,-0.0872 4.12978,-0.25999 5.26786,-0.49107 4.98764,-1.01273 9.29843,-4.09856 11.38393,-6.07143 1.50989,-1.42835 1.34906,-2.12507 -0.0446,-3.39286 z"
             style="fill:#9dc8dd;fill-opacity:1;stroke:#000000;stroke-width:1.28782833;stroke-linecap:butt;stroke-linejoin:miter;stroke-miterlimit:4;stroke-opacity:1;stroke-dasharray:none;display:inline" />
        </g>
        <path
           sodipodi:nodetypes="csszsscc"
           inkscape:connector-curvature="0"
           d="m -281.69465,133.46467 c 2.4679,8.37538 4.26365,25.06402 4.48825,41.78185 l 0.90841,67.61518 c 0.24836,18.48568 -5.34353,65.54998 -15.32449,65.54998 -9.98098,0 -15.58848,-51.06451 -15.32451,-69.54998 l 0.90841,-63.61518 c 0.23872,-16.71763 2.02035,-33.40647 4.48826,-41.78185 z"
           style="fill:#f7f2e4;fill-opacity:1;stroke:#000000;stroke-width:1.39999998;stroke-linecap:round;stroke-linejoin:round;stroke-miterlimit:4;stroke-opacity:1;stroke-dasharray:none"
           id="path4540" />
        <g
           transform="matrix(0,-1.1836254,0.99844898,0,-35.19366,-915.34229)"
           id="g4542">
          <path
             style="fill:none;stroke:#646464;stroke-width:0.73590189;stroke-linecap:round;stroke-linejoin:round;stroke-miterlimit:4;stroke-opacity:1;stroke-dasharray:none;display:inline"
             d="m -921.23878,-270.81152 0,28.227"
             id="path4544"
             inkscape:connector-curvature="0"
             sodipodi:nodetypes="cc" />
          <g
             id="g4546"
             transform="translate(0.60526,0)">
            <path
               style="fill:none;stroke:#646464;stroke-width:0.73590189;stroke-linecap:round;stroke-linejoin:round;stroke-miterlimit:4;stroke-opacity:1;stroke-dasharray:none;display:inline"
               d="m -958.36189,-271.39081 0,29.12729"
               id="path4548"
               inkscape:connector-curvature="0"
               sodipodi:nodetypes="cc" />
            <path
               sodipodi:nodetypes="cc"
               inkscape:connector-curvature="0"
               id="path4550"
               d="m -958.36189,-263.03252 36.51785,0"
               style="fill:none;stroke:#646464;stroke-width:0.73590189;stroke-linecap:round;stroke-linejoin:round;stroke-miterlimit:4;stroke-opacity:1;stroke-dasharray:none;display:inline" />
            <path
               style="fill:none;stroke:#646464;stroke-width:0.73590189;stroke-linecap:round;stroke-linejoin:round;stroke-miterlimit:4;stroke-opacity:1;stroke-dasharray:none;display:inline"
               d="m -958.36189,-251.69323 36.51785,0"
               id="path4552"
               inkscape:connector-curvature="0"
               sodipodi:nodetypes="cc" />
          </g>
        </g>
        <g
           id="g4564"
           transform="matrix(0,-1.1836254,0.99844898,0,148.77919,-915.34229)">
          <g
             transform="translate(0,0.461235)"
             id="g4566">
            <path
               style="fill:#e2eff5;fill-opacity:1;stroke:#000000;stroke-width:1.28782833;stroke-linecap:butt;stroke-linejoin:round;stroke-miterlimit:4;stroke-opacity:1;stroke-dasharray:none;display:inline"
               d="m -879.99332,-254.82669 c -0.78001,0.65629 -1.41889,1.1696 -2.34002,3.02904 -0.12003,2.08667 -0.24433,5.73833 -0.40114,7.92597 -0.58875,8.21385 -0.73194,21.86555 -0.40115,23.47502 0.21913,1.06616 0.59029,2.27837 1.53773,3.02903 0.8484,0.67219 1.4793,0.43532 1.83858,-0.45435 0.26522,-0.65676 0.39131,-2.14497 0.36771,-3.07952 -0.28841,-11.42422 -0.41087,-22.62414 -0.60171,-33.92519 z"
               id="path4568"
               inkscape:connector-curvature="0"
               sodipodi:nodetypes="ccsssssc" />
            <path
               sodipodi:nodetypes="ccsssssc"
               inkscape:connector-curvature="0"
               id="path4570"
               d="m -882.70549,-259.3022 c 0.78001,-0.65629 1.41889,-1.1696 2.34002,-3.02904 0.12003,-2.08667 0.24433,-5.73833 0.40114,-7.92597 0.58875,-8.21385 0.73194,-21.86555 0.40115,-23.47502 -0.21913,-1.06616 -0.59029,-2.27837 -1.53773,-3.02903 -0.8484,-0.67219 -1.4793,-0.43532 -1.83858,0.45435 -0.26522,0.65676 -0.39131,2.14497 -0.36771,3.07952 0.28841,11.42422 0.41087,22.62414 0.60171,33.92519 z"
               style="fill:#e2eff5;fill-opacity:1;stroke:#000000;stroke-width:1.28782833;stroke-linecap:butt;stroke-linejoin:round;stroke-miterlimit:4;stroke-opacity:1;stroke-dasharray:none;display:inline" />
          </g>
          <path
             style="fill:#9dc8dd;fill-opacity:1;stroke:#000000;stroke-width:1.28782833;stroke-linecap:butt;stroke-linejoin:miter;stroke-miterlimit:4;stroke-opacity:1;stroke-dasharray:none;display:inline"
             d="m -867.43127,-258.27501 c -3.14871,-2.86424 -6.51714,-4.52168 -11.38393,-5.9375 -1.38264,-0.40223 -3.50731,-0.81951 -5.22322,-0.625 l 0,16.51786 c 1.78872,-0.0872 4.12978,-0.25999 5.26786,-0.49107 4.98764,-1.01273 9.29843,-4.09856 11.38393,-6.07143 1.50989,-1.42835 1.34906,-2.12507 -0.0446,-3.39286 z"
             id="path4572"
             inkscape:connector-curvature="0"
             sodipodi:nodetypes="ssccsss" />
        </g>
        <path
           id="path4574"
           style="fill:#f7f2e4;fill-opacity:1;stroke:#000000;stroke-width:1.39999998;stroke-linecap:round;stroke-linejoin:round;stroke-miterlimit:4;stroke-opacity:1;stroke-dasharray:none"
           d="m -97.498195,133.46467 c 2.467906,8.37538 4.263656,25.06402 4.488257,41.78185 l 0.908409,67.61518 c 0.248354,18.48568 -5.343529,65.54998 -15.324491,65.54998 -9.98098,0 -15.57286,-47.0643 -15.32451,-65.54998 l 0.90841,-67.61518 c 0.2246,-16.71783 2.02035,-33.40647 4.48826,-41.78185 z"
           inkscape:connector-curvature="0"
           sodipodi:nodetypes="csszsscc" />
        <g
           id="g4576"
           transform="matrix(0,-1.1836254,0.99844898,0,149.0028,-915.34229)">
          <path
             sodipodi:nodetypes="cc"
             inkscape:connector-curvature="0"
             id="path4578"
             d="m -921.23878,-270.81152 0,28.227"
             style="fill:none;stroke:#646464;stroke-width:0.73590189;stroke-linecap:round;stroke-linejoin:round;stroke-miterlimit:4;stroke-opacity:1;stroke-dasharray:none;display:inline" />
          <g
             transform="translate(0.60526,0)"
             id="g4580">
            <path
               sodipodi:nodetypes="cc"
               inkscape:connector-curvature="0"
               id="path4582"
               d="m -958.36189,-271.39081 0,29.12729"
               style="fill:none;stroke:#646464;stroke-width:0.73590189;stroke-linecap:round;stroke-linejoin:round;stroke-miterlimit:4;stroke-opacity:1;stroke-dasharray:none;display:inline" />
            <path
               style="fill:none;stroke:#646464;stroke-width:0.73590189;stroke-linecap:round;stroke-linejoin:round;stroke-miterlimit:4;stroke-opacity:1;stroke-dasharray:none;display:inline"
               d="m -958.36189,-263.03252 36.51785,0"
               id="path4584"
               inkscape:connector-curvature="0"
               sodipodi:nodetypes="cc" />
            <path
               sodipodi:nodetypes="cc"
               inkscape:connector-curvature="0"
               id="path4586"
               d="m -958.36189,-251.69323 36.51785,0"
               style="fill:none;stroke:#646464;stroke-width:0.73590189;stroke-linecap:round;stroke-linejoin:round;stroke-miterlimit:4;stroke-opacity:1;stroke-dasharray:none;display:inline" />
          </g>
        </g>
      </g>
      <g
         transform="matrix(0,-1.4792157,1.432344,0,761.88195,-1035.1164)"
         id="g4596"
         style="display:inline;filter:url(#filter3222)">
        <path
           sodipodi:nodetypes="csscssccc"
           inkscape:connector-curvature="0"
           d="m -1344.4643,-264.8595 25.7143,0.17857 c 3.0099,0.0209 5.6214,1.41978 6.9643,5.17857 l 37.6217,104.46428 -37.6217,104.464296 c -1.3525,3.755358 -3.9544,5.157671 -6.9643,5.178571 l -25.7143,0.178571 9.4643,-109.821428 z"
           style="fill:#ffffff;fill-opacity:1;stroke:#000000;stroke-width:0.9618085;stroke-linecap:round;stroke-linejoin:round;stroke-miterlimit:4;stroke-opacity:1;stroke-dasharray:none"
           id="path4598" />
        <g
           transform="translate(0,-0.05029)"
           id="g4600">
          <g
             id="g4602">
            <path
               sodipodi:nodetypes="cccc"
               inkscape:connector-curvature="0"
               id="path4606"
               d="m -1280.347,-139.96889 -5.9994,0 -30.9466,89.929002 5.3357,0"
               style="fill:none;stroke:#646464;stroke-width:0.54960483;stroke-linecap:round;stroke-linejoin:round;stroke-miterlimit:4;stroke-opacity:1;stroke-dasharray:none;display:inline" />
          </g>
          <g
             id="g4610"
             transform="matrix(1,0,0,-1,0,-309.97556)">
            <path
               style="fill:#ffe691;fill-opacity:1;stroke:none;display:inline"
               d="m -1335.0525,-148.39452 22.718,0 -16.9234,90.013215 2.9891,1.578363 -1.9039,11.126869 -15.7481,0 z"
               id="path4612"
               inkscape:connector-curvature="0"
               sodipodi:nodetypes="ccccccc" />
            <path
               style="fill:none;stroke:#646464;stroke-width:0.54960483;stroke-linecap:round;stroke-linejoin:round;stroke-miterlimit:4;stroke-opacity:1;stroke-dasharray:none;display:inline"
               d="m -1280.347,-139.96889 -5.9994,0 -30.9466,89.929002 5.3357,0"
               id="path4614"
               inkscape:connector-curvature="0"
               sodipodi:nodetypes="cccc" />
            <path
               sodipodi:nodetypes="cccc"
               inkscape:connector-curvature="0"
               id="path4616"
               d="m -1335.0863,-148.39452 5.0733,0 -4.6352,39.51325 -3.7744,0"
               style="fill:#ffffff;fill-opacity:1;stroke:#646464;stroke-width:0.54960483;stroke-linecap:round;stroke-linejoin:round;stroke-miterlimit:4;stroke-opacity:1;stroke-dasharray:none;display:inline" />
            <path
               sodipodi:nodetypes="ccccc"
               inkscape:connector-curvature="0"
               id="path4013"
               d="m -1335.2554,-148.39452 22.9209,0 -16.9234,90.013215 2.9891,1.578363 -1.9039,11.126869"
               style="fill:none;stroke:#646464;stroke-width:0.54960483;stroke-linecap:round;stroke-linejoin:round;stroke-miterlimit:4;stroke-opacity:1;stroke-dasharray:none;display:inline" />
            <path
               sodipodi:nodetypes="ccccccc"
               inkscape:connector-curvature="0"
               id="path4015"
               d="m -1335.0525,-161.63999 22.718,0 -16.9234,-90.0131 2.9891,-1.57836 -1.9039,-11.12687 -15.7481,0 z"
               style="fill:#ffe691;fill-opacity:1;stroke:none;display:inline" />
            <path
               style="fill:#ffffff;fill-opacity:1;stroke:#646464;stroke-width:0.54960483;stroke-linecap:round;stroke-linejoin:round;stroke-miterlimit:4;stroke-opacity:1;stroke-dasharray:none;display:inline"
               d="m -1335.0863,-161.63999 5.0733,0 -4.6352,-39.51317 -3.7744,0"
               id="path4017"
               inkscape:connector-curvature="0"
               sodipodi:nodetypes="cccc" />
            <path
               style="fill:none;stroke:#646464;stroke-width:0.54960483;stroke-linecap:round;stroke-linejoin:round;stroke-miterlimit:4;stroke-opacity:1;stroke-dasharray:none;display:inline"
               d="m -1335.2554,-161.63999 22.9209,0 -16.9234,-90.0131 2.9891,-1.57836 -1.9039,-11.12687"
               id="path4019"
               inkscape:connector-curvature="0"
               sodipodi:nodetypes="ccccc" />
          </g>
        </g>
      </g>
      <g
         transform="matrix(1.2040927,0,0,0.97051833,780.05973,356.27059)"
         id="g3432"
         style="display:inline;filter:url(#filter3222)">
        <path
           sodipodi:nodetypes="csccczsccsczc"
           inkscape:connector-curvature="0"
           d="m -202.95202,615.11429 c -0.98437,-3.56402 -4.33137,-32.00618 -9.68136,-71.01764 -8.48093,-61.84112 -17.48115,-163.6851 -16.9291,-194.62495 l -0.18721,-172.72164 c -0.28366,-23.77536 11.31781,-95.773046 22.29386,-120.0234 1.02531,-2.265222 3.4122,-5.948191 7.93158,-5.948191 4.51948,0 6.90637,3.683004 7.93158,5.948168 10.97615,24.250365 22.57753,96.248073 22.29397,120.023443 l -0.18731,172.72162 c 0.55214,30.93985 -8.44808,132.78383 -16.929,194.62495 -5.34999,39.01146 -8.69699,67.45362 -9.68136,71.01764 -0.58619,2.12212 -1.74319,4.2272 -3.42788,4.2272 -1.68468,0 -2.84168,-2.10508 -3.42777,-4.2272 z"
           style="fill:#eae5c3;fill-opacity:1;stroke:#000000;stroke-width:1.29507887;stroke-linecap:butt;stroke-linejoin:miter;stroke-miterlimit:4;stroke-opacity:1;stroke-dasharray:none;display:inline"
           id="path4518" />
        <g
           style="display:inline"
           id="g4622"
           transform="matrix(0,-1.1836254,0.99844898,0,-44.726614,-923.91371)">
          <path
             style="fill:none;stroke:#646464;stroke-width:0.80000001;stroke-linecap:round;stroke-linejoin:round;stroke-miterlimit:4;stroke-opacity:1;stroke-dasharray:none;display:inline"
             d="m -841.92048,-167.71665 0,25.35715"
             id="path4624"
             inkscape:connector-curvature="0"
             sodipodi:nodetypes="cc" />
          <g
             id="g4626"
             transform="translate(0,-0.049145)">
            <g
               id="g4628">
              <path
                 sodipodi:nodetypes="cccc"
                 inkscape:connector-curvature="0"
                 id="path4630"
                 d="m -1123.9033,-181.88383 0,2.56645 27.9434,-0.7352 0,-3.84501"
                 style="fill:none;stroke:#646464;stroke-width:0.80000001;stroke-linecap:round;stroke-linejoin:round;stroke-miterlimit:4;stroke-opacity:1;stroke-dasharray:none;display:inline" />
              <path
                 sodipodi:nodetypes="cc"
                 inkscape:connector-curvature="0"
                 id="path4632"
                 d="m -1151.7532,-179.02163 c 3.0423,3.47238 11.2627,2.42662 13.1769,-1.28595"
                 style="fill:#f4f4f4;fill-opacity:1;stroke:#646464;stroke-width:0.80000001;stroke-linecap:round;stroke-linejoin:round;stroke-miterlimit:4;stroke-opacity:1;stroke-dasharray:none;display:inline" />
              <path
                 style="fill:#f4f4f4;fill-opacity:1;stroke:#646464;stroke-width:0.68075067;stroke-linecap:round;stroke-linejoin:round;stroke-miterlimit:4;stroke-opacity:1;stroke-dasharray:none;display:inline"
                 d="m -949.15601,-184.30497 c -0.0166,1.46852 0.22939,2.74011 1.16071,3.4977 l 14.95629,0 0,-3.57006"
                 id="path4634"
                 inkscape:connector-curvature="0"
                 sodipodi:nodetypes="cccc" />
              <path
                 sodipodi:nodetypes="ccc"
                 inkscape:connector-curvature="0"
                 id="path4636"
                 d="m -917.19157,-183.35191 c -3.01628,0.85252 -6.70456,2.78268 -12.6795,2.54464 l 0,-3.57006"
                 style="fill:#f4f4f4;fill-opacity:1;stroke:#646464;stroke-width:0.68075067;stroke-linecap:round;stroke-linejoin:round;stroke-miterlimit:4;stroke-opacity:1;stroke-dasharray:none;display:inline" />
              <path
                 sodipodi:nodetypes="ccccc"
                 inkscape:connector-curvature="0"
                 id="path4638"
                 d="m -922.356,-157.20675 c -0.30322,-4.79439 -2.59285,-17.49445 -3.80894,-20.38623 l 13.43843,-1.25 c 5.14735,6.92301 5.05952,16.45924 5.04464,21.74244 z"
                 style="fill:#f4f4f4;fill-opacity:1;stroke:#646464;stroke-width:0.68075067;stroke-linecap:round;stroke-linejoin:round;stroke-miterlimit:4;stroke-opacity:1;stroke-dasharray:none;display:inline" />
            </g>
            <g
               transform="matrix(1,0,0,-1,0,-309.97785)"
               id="g4640">
              <path
                 style="fill:#f4f4f4;fill-opacity:1;stroke:#646464;stroke-width:0.80000001;stroke-linecap:round;stroke-linejoin:round;stroke-miterlimit:4;stroke-opacity:1;stroke-dasharray:none;display:inline"
                 d="m -1151.7532,-179.10444 c 3.0423,3.47238 11.2627,2.5098 13.1769,-1.20277"
                 id="path4642"
                 inkscape:connector-curvature="0"
                 sodipodi:nodetypes="cc" />
              <path
                 sodipodi:nodetypes="cccc"
                 inkscape:connector-curvature="0"
                 id="path4644"
                 d="m -949.15601,-184.30497 c -0.0166,1.46852 0.22939,2.74011 1.16071,3.4977 l 14.95629,0 0,-3.57006"
                 style="fill:#f4f4f4;fill-opacity:1;stroke:#646464;stroke-width:0.68075067;stroke-linecap:round;stroke-linejoin:round;stroke-miterlimit:4;stroke-opacity:1;stroke-dasharray:none;display:inline" />
              <path
                 style="fill:#f4f4f4;fill-opacity:1;stroke:#646464;stroke-width:0.68075067;stroke-linecap:round;stroke-linejoin:round;stroke-miterlimit:4;stroke-opacity:1;stroke-dasharray:none;display:inline"
                 d="m -917.19157,-183.35191 c -3.01628,0.85252 -6.70456,2.78268 -12.6795,2.54464 l 0,-3.57006"
                 id="path4646"
                 inkscape:connector-curvature="0"
                 sodipodi:nodetypes="ccc" />
              <path
                 style="fill:#f4f4f4;fill-opacity:1;stroke:#646464;stroke-width:0.68075067;stroke-linecap:round;stroke-linejoin:round;stroke-miterlimit:4;stroke-opacity:1;stroke-dasharray:none;display:inline"
                 d="m -922.356,-157.20675 c -0.30322,-4.79439 -2.59285,-17.49445 -3.80894,-20.38623 l 13.43843,-1.25 c 5.14735,6.92301 5.05952,16.45924 5.04464,21.74244 z"
                 id="path4648"
                 inkscape:connector-curvature="0"
                 sodipodi:nodetypes="ccccc" />
            </g>
          </g>
        </g>
      </g>
      <path
         sodipodi:nodetypes="cccccc"
         inkscape:connector-curvature="0"
         d="m 536.32497,930.21212 0,-45.29281 c -0.13061,-3.04523 1.52947,-77.34719 3.49275,-110.92736 1.67898,33.88022 3.478,104.2065 3.49272,110.92736 l 0,45.29281 z"
         style="fill:#ffffff;fill-opacity:1;stroke:#000000;stroke-width:1.39999998;stroke-linecap:butt;stroke-linejoin:miter;stroke-miterlimit:4;stroke-opacity:1;stroke-dasharray:none;stroke-dashoffset:0;display:inline;filter:url(#filter3222)"
         id="path4592" />
      <path
         id="path3187"
         style="fill:#ffe691;fill-opacity:1;stroke:#000000;stroke-width:1.39999998;stroke-linecap:round;stroke-linejoin:round;stroke-miterlimit:4;stroke-opacity:1;stroke-dasharray:none;stroke-dashoffset:0;display:inline;filter:url(#filter3222)"
         d="m 536.0376,903.99195 1.09981,45.29279 2,25.6857 c 0.48441,1.2636 0.96883,1.2617 1.45324,0 l 2,-25.6857 0.99995,-45.29279 z"
         inkscape:connector-curvature="0"
         sodipodi:nodetypes="ccccccc" />
    </g>
  </g>
</svg>
